


                     eT 1.1 - an electronic structure program

  ------------------------------------------------------------------------
   Author list in alphabetical order:
  ------------------------------------------------------------------------
   J. H. Andersen, A. Balbi, S. Coriani, S. D. Folkestad, T. Giovannini, 
   L. Goletto, T. S. Haugland, A. Hutcheson, I-M. Høyvik, E. F. Kjønstad, 
   H. Koch, T. Moitra, R. H. Myhre, A. C. Paul, S. Roet, M. Scavino, 
   A. Skeidsvoll, Å. H. Tveten
  ------------------------------------------------------------------------
   J. Chem. Phys. 152, 184103 (2020); https://doi.org/10.1063/5.0004713


   This is eT version 1.1.0, Nachspiel
  ------------------------------------------------------------
  Compiled by:        alexancp
  Compiled on:        NTNU16748
  Configuration date: 2020-11-26 18:25:10 UTC +01:00
  Git branch:         always-restart-l-from-r
  Git hash:           74c9e82429f4cd737ace79ccb65d5f6ee702df4f
  Fortran compiler:   GNU 9.3.0
  C compiler:         GNU 9.3.0
  C++ compiler:       GNU 9.3.0
  LAPACK type:        MKL
  BLAS type:          MKL
  64-bit integers:    ON
  OpenMP:             ON
  PCM:                OFF
  Forced batching:    OFF
  Runtime checks:     OFF
  ------------------------------------------------------------

  Calculation started: 2020-11-26 18:35:22 UTC +01:00


  :: Input file
  ================

     Note: geometry section is excluded from this print

     system
        name: H2O He
        charge: 0
     end system

     do
       response
     end do

     memory
        available: 8
     end memory

     solver cholesky
        threshold: 1.0d-12
     end solver cholesky

     solver scf
        restart
        energy threshold:   1.0d-11
        gradient threshold: 1.0d-11
     end solver scf

     method
        hf
        ccsd
     end method

     solver cc gs
        restart
        omega threshold:  1.0d-11
        energy threshold: 1.0d-11
     end solver cc gs

     solver cc es
        algorithm:          davidson
        singlet states:     3
        residual threshold: 1.0d-11
        energy threshold:   1.0d-11
     end solver cc es

     cc response
       eom
       dipole length
       transition moments
     end cc response

     solver cc multipliers
        restart
        threshold:         1.0d-12
        algorithm:         davidson
     end solver cc multipliers


  Running on 2 OMP threads
  Memory available for calculation: 8.000000 GB


  :: Molecular system specifications
  =====================================

     Name:             h2o he
     Charge:           0
     Multiplicity:     1
     Coordinate units: angstrom

     Pure basis functions:         29
     Cartesian basis functions:    30
     Primitive basis functions:    56

     Nuclear repulsion energy (a.u.):             12.116100574587
     Bohr/angstrom value (CODATA 2010):            0.529177210920

     ==============================================================================
                                     Geometry (angstrom)
     ==============================================================================
        Atom           X                  Y                  Z         # in input
     ==============================================================================
        Basis: cc-pvdz
        1 H      0.866810000000     0.601440000000     5.000000000000        1
        2 H     -0.866810000000     0.601440000000     5.000000000000        2
        3 O      0.000000000000    -0.075790000000     5.000000000000        3
        4 He     0.100000000000    -0.020000000000     7.530000000000        4
     ==============================================================================

     ==============================================================================
                                     Geometry (a.u.)
     ==============================================================================
        Atom           X                  Y                  Z         # in input
     ==============================================================================
        Basis: cc-pvdz
        1 H      1.638033502034     1.136556880358     9.448630622825        1
        2 H     -1.638033502034     1.136556880358     9.448630622825        2
        3 O      0.000000000000    -0.143222342981     9.448630622825        3
        4 He     0.188972612457    -0.037794522491    14.229637717975        4
     ==============================================================================


  :: RHF wavefunction
  ======================

  - Cholesky decomposition of AO overlap to get linearly independent orbitals:

  - Orbital details:

     Number of occupied orbitals:         6
     Number of virtual orbitals:         23
     Number of molecular orbitals:       29
     Number of atomic orbitals:          29


  :: Hartree-Fock engine
  =========================

  Drives the calculation of the Hartree-Fock state.

  This is a RHF ground state calculation.
  The following tasks will be performed:

     1) Calculation of reference state (SCF-DIIS algorithm)


  1) Calculation of reference state (SCF-DIIS algorithm)

   - Self-consistent field DIIS Hartree-Fock solver
  ----------------------------------------------------

  A DIIS-accelerated Roothan-Hall self-consistent field solver. A least-square 
  DIIS fit is performed on the previous Fock matrices and associated gradients. 
  Following the Roothan-Hall update of the density, the DIIS-fitted Fock 
  matrix is used to get the next orbital coefficients.

  - Hartree-Fock solver settings:

     DIIS dimension:                         8
     Cumulative Fock threshold:       0.10E+01

     Residual threshold:            0.1000E-10
     Energy threshold:              0.1000E-10

     Coulomb screening threshold:   0.1000E-16
     Exchange screening threshold:  0.1000E-14
     Fock precision:                0.1000E-33
     Integral cutoff:               0.1000E-16

  - Requested restart. Reading orbitals from file

  Iteration       Energy (a.u.)      Max(grad.)    Delta E (a.u.)
  ---------------------------------------------------------------
     1           -78.843851693631     0.2908E-11     0.7884E+02
  ---------------------------------------------------------------
  Convergence criterion met in 1 iterations!

  - Summary of RHF wavefunction energetics (a.u.):

     HOMO-LUMO gap:                  0.645629080248
     Nuclear repulsion energy:      12.116100574587
     Electronic energy:            -90.959952268218
     Total energy:                 -78.843851693631

  - Molecular orbital energies

  -----------------------------------------------------------------------------------
   1 -20.574269195145   9   0.704416610867  17   1.682695299877  25   3.175416260660
   2  -1.277667044968  10   0.746260122914  18   1.804186820052  26   3.209661156313
   3  -0.898849406810  11   1.155862024383  19   1.902641648742  27   3.328173215200
   4  -0.629870222690  12   1.170770887076  20   2.148883457168  28   3.721936473470
   5  -0.541641772852  13   1.267961746552  21   2.200395756969  29   3.985492632586
   6  -0.485872762832  14   1.449847537220  22   2.540321860021
   7   0.159756317416  15   1.463234913438  23   2.541517310547
   8   0.229311906283  16   1.474444394527  24   2.559338707350
  -----------------------------------------------------------------------------------

  - Timings for the RHF ground state calculation

     Total wall time (sec):              0.06463
     Total cpu time (sec):               0.06122


  :: CCSD wavefunction
  =======================

     Bath orbital(s):         False
     Core-valence separation: False

   - Number of orbitals:

     Occupied orbitals:    6
     Virtual orbitals:     23
     Molecular orbitals:   29
     Atomic orbitals:      29

   - Number of ground state amplitudes:

     Single excitation amplitudes:  138
     Double excitation amplitudes:  9591


  :: Coupled cluster response engine
  =====================================

  Calculates dipole transition moments and oscillator strengths between 

  the ground state and the excited states.

  This is a CCSD response calculation.
  The following tasks will be performed:

     1) Cholesky decomposition of the electron repulsion integrals
     2) Preparation of MO basis and integrals
     3) Calculation of the ground state (diis algorithm)
     4) Calculation of the multipliers (davidson algorithm)
     5) Calculation of the excited state (davidson algorithm)
     6) Calculation of the transition moments (EOM)


  1) Cholesky decomposition of the electron repulsion integrals

   - Cholesky decomposition of electronic repulsion integrals solver
  ---------------------------------------------------------------------

  Performs a Cholesky decomposition of the two-electron electronic repulsion 
  integrals in the atomic orbital basis,

  (ab|cd) = sum_J L_ab^J L_cd^J.

  Once the Cholesky basis has been determined, the vectors L^J are constructed 
  and stored to disk. These may either be used directly, or be transformed 
  to the MO basis for use in post-HF calculations. For more information, 
  see S. D. Folkestad, E. F. Kjønstad and H. Koch, JCP, 150(19), (2019)

  - Cholesky decomposition settings:

     Target threshold is:   0.10E-11
     Span factor:           0.10E-01
     Max qual:                  1000

  - Cholesky decomposition system details:

     Total number of AOs:                    29
     Total number of shell pairs:           120
     Total number of AO pairs:              435

     Significant shell pairs:               118
     Significant AO pairs:                  431

     Construct shell pairs:                 120
     Construct AO pairs:                    435

  Iter.  #Sign. ao pairs / shell pairs   Max diagonal    #Qualified    #Cholesky    Cholesky array size
  -------------------------------------------------------------------------------------------------------
     1               406 /     108       0.47383E+01         147             42             17052
     2               319 /      93       0.47165E-01         234            111             35409
     3               250 /      76       0.46944E-03         178            183             45750
     4               187 /      55       0.38270E-05         145            265             49555
     5                87 /      25       0.38106E-07          78            324             28188
     6                21 /       3       0.37202E-09          43            349              7329
     7                 0 /       0       0.36652E-11           7            354                 0
  -------------------------------------------------------------------------------------------------------

  - Summary of Cholesky decomposition of electronic repulsion integrals:

     Final number of Cholesky vectors: 354

 - Testing the Cholesky decomposition decomposition electronic repulsion integrals:

     Maximal difference between approximate and actual diagonal:              0.7161E-12
     Minimal element of difference between approximate and actual diagonal:  -0.1238E-14

  - Settings for integral handling:

     Cholesky vectors in memory: True
     ERI matrix in memory:       False
     T1 ERI matrix in memory:    True

  - Finished decomposing the ERIs.

     Total wall time (sec):              0.28866
     Total cpu time (sec):               0.57068


  2) Preparation of MO basis and integrals


  3) Calculation of the ground state (diis algorithm)

   - DIIS coupled cluster ground state solver
  ----------------------------------------------

  A DIIS CC ground state amplitude equations solver. It uses an extrapolation 
  of previous quasi-Newton perturbation theory estimates of the next amplitudes. 
  See Helgaker et al., Molecular Electronic Structure Theory, Chapter 
  13.

  - DIIS CC ground state solver settings:

     Residual threshold:            0.1000E-10
     Energy threshold:              0.1000E-10

     DIIS dimension:                   8
     Max number of iterations:       100

     Storage: disk

  Requested restart. Reading in solution from file.

  Iteration    Energy (a.u.)        |omega|       Delta E (a.u.)
  ---------------------------------------------------------------
    1           -79.100383481556     0.7516E-11     0.7910E+02
  ---------------------------------------------------------------
  Convergence criterion met in 1 iterations!

  - Ground state summary:

     Final ground state energy (a.u.):   -79.100383481556

     Correlation energy (a.u.):           -0.256531787925

     Largest single amplitudes:
     -----------------------------------
        a       i         t(a,i)
     -----------------------------------
        1      5        0.014740597524
       14      4       -0.009546856220
        7      4        0.008284826483
       15      5       -0.006124828873
        4      5        0.005606072698
        6      2        0.005476844297
        2      4        0.005318591701
       13      5        0.005269818337
        5      6        0.004933006906
       11      6       -0.003454309399
     ------------------------------------

     Largest double amplitudes:
     --------------------------------------------------
        a      i       b      j         t(ai,bj)
     --------------------------------------------------
        2      4       2      4       -0.047351708919
        5      6       5      6       -0.046240574404
        9      3       9      3       -0.041367012248
        3      4       3      4       -0.036659067517
        6      5       6      5       -0.034554012170
        1      5       1      5       -0.034177347751
       16      3      16      3       -0.032108235347
       17      3      17      3       -0.032052553603
       18      3      18      3       -0.031351828684
        2      4       3      4       -0.029701270698
     --------------------------------------------------

     T1 diagnostic (|T1|/sqrt(N_e)): 0.007226152112

  - Finished solving the CCSD ground state equations

     Total wall time (sec):              0.02338
     Total cpu time (sec):               0.04703


  4) Calculation of the multipliers (davidson algorithm)

   - Davidson coupled cluster multipliers solver
  -------------------------------------------------

  A Davidson solver that solves the multiplier equation: t-bar^T A = -η. 
  This linear equation is solved in a reduced space. A description of 
  the algorithm can be found in E. R. Davidson, J. Comput. Phys. 17, 87 
  (1975).

  - Davidson CC multipliers solver settings:

     Residual threshold:        0.10E-11
     Max number of iterations:       100

  Requested restart. Reading multipliers from file.

  Iteration     Residual norm
  ---------------------------
    1             0.4640E-04
    2             0.1222E-04
    3             0.4051E-05
    4             0.1616E-05
    5             0.7756E-06
    6             0.2562E-06
    7             0.8767E-07
    8             0.3306E-07
    9             0.1025E-07
   10             0.2484E-08
   11             0.6231E-09
   12             0.1446E-09
   13             0.4280E-10
   14             0.1256E-10
   15             0.4222E-11
   16             0.1885E-11
   17             0.6595E-12
  ---------------------------

  Convergence criterion met in 17 iterations!

  - Davidson CC multipliers solver summary:

     Largest single amplitudes:
     -----------------------------------
        a       i         tbar(a,i)
     -----------------------------------
        1      5        0.022790118897
       14      4       -0.015907507091
        7      4        0.014297181947
        4      5        0.011712306720
       15      5       -0.010007216961
        6      2        0.009083547621
       13      5        0.008770531160
        2      4        0.006954460294
        5      6        0.006820250278
        3      4        0.006765159553
     ------------------------------------

     Largest double amplitudes:
     --------------------------------------------------
        a      i       b      j         tbar(ai,bj)
     --------------------------------------------------
        5      6       5      6       -0.092500754790
        2      4       2      4       -0.092085328213
        6      5       5      6        0.089666625590
        2      4       5      6       -0.083792278099
        9      3       9      3       -0.082167759498
        2      4       6      5        0.077164163662
        2      4       1      5       -0.076342716082
        7      4       5      6        0.071424572152
        3      4       3      4       -0.071282985174
        6      5       6      5       -0.068075967747
     --------------------------------------------------

  - Finished solving the CCSD multipliers equations

     Total wall time (sec):               0.10370
     Total cpu time (sec):                0.20567


  5) Calculation of the excited state (davidson algorithm)
     Calculating right vectors

   - Davidson coupled cluster excited state solver
  ---------------------------------------------------

  A Davidson solver that calculates the lowest eigenvalues and the right 
  or left eigenvectors of the Jacobian matrix, A. The eigenvalue problem 
  is solved in a reduced space, the dimension of which is expanded until 
  the convergence criteria are met.

  A complete description of the algorithm can be found in E. R. Davidson, 
  J. Comput. Phys. 17, 87 (1975).

  - Settings for coupled cluster excited state solver (Davidson):

     Calculation type:    valence
     Excitation vectors:  right

     Residual threshold:            0.1000E-10
     Energy threshold:              0.1000E-10

     Number of singlet states:               3
     Max number of iterations:             100

     Max reduced space dimension:          100


  Iteration:                  1
  Reduced space dimension:    3

   Root  Eigenvalue (Re)   Eigenvalue (Im)    |residual|   Delta E (Re)
  ------------------------------------------------------------------------
     1   0.378021714176    0.000000000000     0.4419E+00   0.3780E+00
     2   0.449071436599    0.000000000000     0.4454E+00   0.4491E+00
     3   0.485447321168    0.000000000000     0.4256E+00   0.4854E+00
  ------------------------------------------------------------------------

  Iteration:                  2
  Reduced space dimension:    6

   Root  Eigenvalue (Re)   Eigenvalue (Im)    |residual|   Delta E (Re)
  ------------------------------------------------------------------------
     1   0.247587872712    0.000000000000     0.8953E-01   0.1304E+00
     2   0.314685589305    0.000000000000     0.1020E+00   0.1344E+00
     3   0.361637551474    0.000000000000     0.1093E+00   0.1238E+00
  ------------------------------------------------------------------------

  Iteration:                  3
  Reduced space dimension:    9

   Root  Eigenvalue (Re)   Eigenvalue (Im)    |residual|   Delta E (Re)
  ------------------------------------------------------------------------
     1   0.246599724037    0.000000000000     0.3235E-01   0.9881E-03
     2   0.312360467464    0.000000000000     0.4161E-01   0.2325E-02
     3   0.355506802266    0.000000000000     0.4270E-01   0.6131E-02
  ------------------------------------------------------------------------

  Iteration:                  4
  Reduced space dimension:   12

   Root  Eigenvalue (Re)   Eigenvalue (Im)    |residual|   Delta E (Re)
  ------------------------------------------------------------------------
     1   0.247219879264    0.000000000000     0.9662E-02   0.6202E-03
     2   0.312948613923    0.000000000000     0.1363E-01   0.5881E-03
     3   0.356567905257    0.000000000000     0.1455E-01   0.1061E-02
  ------------------------------------------------------------------------

  Iteration:                  5
  Reduced space dimension:   15

   Root  Eigenvalue (Re)   Eigenvalue (Im)    |residual|   Delta E (Re)
  ------------------------------------------------------------------------
     1   0.247240750153    0.000000000000     0.1980E-02   0.2087E-04
     2   0.312819462210    0.000000000000     0.3311E-02   0.1292E-03
     3   0.356116506763    0.000000000000     0.3899E-02   0.4514E-03
  ------------------------------------------------------------------------

  Iteration:                  6
  Reduced space dimension:   18

   Root  Eigenvalue (Re)   Eigenvalue (Im)    |residual|   Delta E (Re)
  ------------------------------------------------------------------------
     1   0.247195018702    0.000000000000     0.5489E-03   0.4573E-04
     2   0.312713702021    0.000000000000     0.9558E-03   0.1058E-03
     3   0.356092342275    0.000000000000     0.1591E-02   0.2416E-04
  ------------------------------------------------------------------------

  Iteration:                  7
  Reduced space dimension:   21

   Root  Eigenvalue (Re)   Eigenvalue (Im)    |residual|   Delta E (Re)
  ------------------------------------------------------------------------
     1   0.247193454028    0.000000000000     0.1648E-03   0.1565E-05
     2   0.312713934408    0.000000000000     0.2938E-03   0.2324E-06
     3   0.356078554993    0.000000000000     0.5581E-03   0.1379E-04
  ------------------------------------------------------------------------

  Iteration:                  8
  Reduced space dimension:   24

   Root  Eigenvalue (Re)   Eigenvalue (Im)    |residual|   Delta E (Re)
  ------------------------------------------------------------------------
     1   0.247194063074    0.000000000000     0.5256E-04   0.6090E-06
     2   0.312716904504    0.000000000000     0.1701E-03   0.2970E-05
     3   0.356089302961    0.000000000000     0.1841E-03   0.1075E-04
  ------------------------------------------------------------------------

  Iteration:                  9
  Reduced space dimension:   27

   Root  Eigenvalue (Re)   Eigenvalue (Im)    |residual|   Delta E (Re)
  ------------------------------------------------------------------------
     1   0.247194185657    0.000000000000     0.1325E-04   0.1226E-06
     2   0.312717231429    0.000000000000     0.1268E-03   0.3269E-06
     3   0.356084879759    0.000000000000     0.5903E-04   0.4423E-05
  ------------------------------------------------------------------------

  Iteration:                 10
  Reduced space dimension:   30

   Root  Eigenvalue (Re)   Eigenvalue (Im)    |residual|   Delta E (Re)
  ------------------------------------------------------------------------
     1   0.247194225723    0.000000000000     0.3520E-05   0.4007E-07
     2   0.312716888841    0.000000000000     0.6627E-04   0.3426E-06
     3   0.356084999451    0.000000000000     0.2221E-04   0.1197E-06
  ------------------------------------------------------------------------

  Iteration:                 11
  Reduced space dimension:   33

   Root  Eigenvalue (Re)   Eigenvalue (Im)    |residual|   Delta E (Re)
  ------------------------------------------------------------------------
     1   0.247194247675    0.000000000000     0.1049E-05   0.2195E-07
     2   0.312716762474    0.000000000000     0.2096E-04   0.1264E-06
     3   0.356085045748    0.000000000000     0.6691E-05   0.4630E-07
  ------------------------------------------------------------------------

  Iteration:                 12
  Reduced space dimension:   36

   Root  Eigenvalue (Re)   Eigenvalue (Im)    |residual|   Delta E (Re)
  ------------------------------------------------------------------------
     1   0.247194254931    0.000000000000     0.2883E-06   0.7256E-08
     2   0.312716685456    0.000000000000     0.6965E-05   0.7702E-07
     3   0.356085061344    0.000000000000     0.2076E-05   0.1560E-07
  ------------------------------------------------------------------------

  Iteration:                 13
  Reduced space dimension:   39

   Root  Eigenvalue (Re)   Eigenvalue (Im)    |residual|   Delta E (Re)
  ------------------------------------------------------------------------
     1   0.247194255972    0.000000000000     0.9404E-07   0.1041E-08
     2   0.312716666729    0.000000000000     0.2741E-05   0.1873E-07
     3   0.356085054839    0.000000000000     0.6436E-06   0.6504E-08
  ------------------------------------------------------------------------

  Iteration:                 14
  Reduced space dimension:   42

   Root  Eigenvalue (Re)   Eigenvalue (Im)    |residual|   Delta E (Re)
  ------------------------------------------------------------------------
     1   0.247194255450    0.000000000000     0.3221E-07   0.5223E-09
     2   0.312716689486    0.000000000000     0.1223E-05   0.2276E-07
     3   0.356085056850    0.000000000000     0.2012E-06   0.2010E-08
  ------------------------------------------------------------------------

  Iteration:                 15
  Reduced space dimension:   45

   Root  Eigenvalue (Re)   Eigenvalue (Im)    |residual|   Delta E (Re)
  ------------------------------------------------------------------------
     1   0.247194255409    0.000000000000     0.9043E-08   0.4057E-10
     2   0.312716703271    0.000000000000     0.4251E-06   0.1378E-07
     3   0.356085058378    0.000000000000     0.7927E-07   0.1529E-08
  ------------------------------------------------------------------------

  Iteration:                 16
  Reduced space dimension:   48

   Root  Eigenvalue (Re)   Eigenvalue (Im)    |residual|   Delta E (Re)
  ------------------------------------------------------------------------
     1   0.247194255538    0.000000000000     0.2152E-08   0.1286E-09
     2   0.312716700997    0.000000000000     0.1217E-06   0.2273E-08
     3   0.356085057752    0.000000000000     0.2878E-07   0.6265E-09
  ------------------------------------------------------------------------

  Iteration:                 17
  Reduced space dimension:   51

   Root  Eigenvalue (Re)   Eigenvalue (Im)    |residual|   Delta E (Re)
  ------------------------------------------------------------------------
     1   0.247194255567    0.000000000000     0.5073E-09   0.2887E-10
     2   0.312716699012    0.000000000000     0.3424E-07   0.1985E-08
     3   0.356085057564    0.000000000000     0.8283E-08   0.1874E-09
  ------------------------------------------------------------------------

  Iteration:                 18
  Reduced space dimension:   54

   Root  Eigenvalue (Re)   Eigenvalue (Im)    |residual|   Delta E (Re)
  ------------------------------------------------------------------------
     1   0.247194255572    0.000000000000     0.1413E-09   0.5327E-11
     2   0.312716698735    0.000000000000     0.1035E-07   0.2776E-09
     3   0.356085057581    0.000000000000     0.2218E-08   0.1693E-10
  ------------------------------------------------------------------------

  Iteration:                 19
  Reduced space dimension:   57

   Root  Eigenvalue (Re)   Eigenvalue (Im)    |residual|   Delta E (Re)
  ------------------------------------------------------------------------
     1   0.247194255572    0.000000000000     0.3986E-10   0.4837E-12
     2   0.312716698743    0.000000000000     0.3590E-08   0.8109E-11
     3   0.356085057593    0.000000000000     0.6355E-09   0.1153E-10
  ------------------------------------------------------------------------

  Iteration:                 20
  Reduced space dimension:   60

   Root  Eigenvalue (Re)   Eigenvalue (Im)    |residual|   Delta E (Re)
  ------------------------------------------------------------------------
     1   0.247194255572    0.000000000000     0.1125E-10   0.1728E-12
     2   0.312716698769    0.000000000000     0.1127E-08   0.2650E-10
     3   0.356085057594    0.000000000000     0.1890E-09   0.7340E-12
  ------------------------------------------------------------------------

  Iteration:                 21
  Reduced space dimension:   63

   Root  Eigenvalue (Re)   Eigenvalue (Im)    |residual|   Delta E (Re)
  ------------------------------------------------------------------------
     1   0.247194255572    0.000000000000     0.2785E-11   0.1801E-13
     2   0.312716698779    0.000000000000     0.2942E-09   0.1031E-10
     3   0.356085057593    0.000000000000     0.4896E-10   0.7929E-12
  ------------------------------------------------------------------------

  Iteration:                 22
  Reduced space dimension:   65

   Root  Eigenvalue (Re)   Eigenvalue (Im)    |residual|   Delta E (Re)
  ------------------------------------------------------------------------
     1   0.247194255572    0.000000000000     0.1498E-11   0.2609E-14
     2   0.312716698779    0.000000000000     0.7910E-10   0.2249E-12
     3   0.356085057592    0.000000000000     0.1133E-10   0.2664E-12
  ------------------------------------------------------------------------

  Iteration:                 23
  Reduced space dimension:   67

   Root  Eigenvalue (Re)   Eigenvalue (Im)    |residual|   Delta E (Re)
  ------------------------------------------------------------------------
     1   0.247194255572    0.000000000000     0.1435E-11   0.9159E-15
     2   0.312716698779    0.000000000000     0.2020E-10   0.1526E-12
     3   0.356085057592    0.000000000000     0.2560E-11   0.4458E-13
  ------------------------------------------------------------------------

  Iteration:                 24
  Reduced space dimension:   68

   Root  Eigenvalue (Re)   Eigenvalue (Im)    |residual|   Delta E (Re)
  ------------------------------------------------------------------------
     1   0.247194255572    0.000000000000     0.1441E-11   0.2248E-14
     2   0.312716698779    0.000000000000     0.4941E-11   0.8493E-14
     3   0.356085057592    0.000000000000     0.2323E-11   0.1776E-14
  ------------------------------------------------------------------------
  Convergence criterion met in 24 iterations!

  - Excitation vector amplitudes:

     Electronic state nr. 1

     Energy (Hartree):                  0.247194255572
     Fraction singles (|R1|/|R|):       0.973397678083

     Largest single amplitudes:
     -----------------------------------
        a       i         R(a,i)
     -----------------------------------
        1      6        0.964249868485
        4      6        0.121847295823
        6      6       -0.036249387510
       13      6       -0.030061485952
        1      3       -0.011074241439
       22      6        0.008603353606
       19      5       -0.007863834135
        1      5        0.007857920531
       10      6        0.007675079118
        9      6       -0.007427820492
     ------------------------------------

     Largest double amplitudes:
     --------------------------------------------------
        a      i       b      j         R(ai,bj)
     --------------------------------------------------
        2      4       1      6       -0.100746791318
        1      5       1      6       -0.085612058155
        1      6       5      6       -0.066933008112
        1      2       1      6       -0.063267573162
        1      4       2      6       -0.061512599149
        3      4       1      6       -0.054854109240
        6      5       1      6        0.046260935197
        4      5       1      6       -0.038260256937
        7      4       1      6        0.032958804244
        4      4       2      6       -0.032734134559
     --------------------------------------------------

     Electronic state nr. 2

     Energy (Hartree):                  0.312716698779
     Fraction singles (|R1|/|R|):       0.974191508731

     Largest single amplitudes:
     -----------------------------------
        a       i         R(a,i)
     -----------------------------------
        2      6        0.954551201852
        3      6        0.178658232264
        7      6       -0.072428436855
       14      6        0.020845095882
        2      3       -0.011040706129
       12      6       -0.005883373005
        8      2       -0.005692890963
        2      5        0.005144277710
        5      4       -0.004935182404
       11      4       -0.003612992496
     ------------------------------------

     Largest double amplitudes:
     --------------------------------------------------
        a      i       b      j         R(ai,bj)
     --------------------------------------------------
        2      4       2      6       -0.110664929270
        1      5       2      6       -0.079354628531
        2      6       5      6       -0.060325722580
        2      5       1      6       -0.050061414585
        3      4       2      6       -0.047564612585
        1      4       1      6       -0.045251222953
        1      2       2      6       -0.045012448109
        4      5       2      6       -0.039742197636
        6      5       2      6        0.038941412498
        3      5       1      6       -0.034289057215
     --------------------------------------------------

     Electronic state nr. 3

     Energy (Hartree):                  0.356085057592
     Fraction singles (|R1|/|R|):       0.977805372200

     Largest single amplitudes:
     -----------------------------------
        a       i         R(a,i)
     -----------------------------------
        1      5        0.957314847871
        2      4       -0.137091155508
        4      5        0.090812850214
        1      2       -0.071675967623
        3      4       -0.054796039254
        5      6       -0.040602500552
       13      5       -0.029458132227
        7      4        0.025825254324
        4      2       -0.021074995285
       10      5        0.013972713306
     ------------------------------------

     Largest double amplitudes:
     --------------------------------------------------
        a      i       b      j         R(ai,bj)
     --------------------------------------------------
        2      4       1      5       -0.082435001503
        1      5       1      5       -0.081686786865
        1      5       6      5        0.054811008558
        1      4       2      5       -0.048159897951
        1      5       4      5       -0.042695435568
        3      4       1      5       -0.039841925826
        1      5       5      6       -0.039669396138
        2      5       3      5       -0.037629696693
        1      2       3      4        0.032609865471
        4      4       2      5       -0.031072898992
     --------------------------------------------------

     - Electronic excitation energies:

                                      Excitation energy
                          ------------------------------------------
      State                (Hartree)             (eV)
     ---------------------------------------------------------------
        1                  0.247194255572        6.726498310303
        2                  0.312716698779        8.509454805379
        3                  0.356085057592        9.689567958102
     ---------------------------------------------------------------
     eV/Hartree (CODATA 2014): 27.21138602

  - Finished solving the CCSD excited state equations (right)

     Total wall time (sec):              0.47760
     Total cpu time (sec):               0.95676


  5) Calculation of the excited state (davidson algorithm)
     Calculating left vectors

   - Davidson coupled cluster excited state solver
  ---------------------------------------------------

  A Davidson solver that calculates the lowest eigenvalues and the right 
  or left eigenvectors of the Jacobian matrix, A. The eigenvalue problem 
  is solved in a reduced space, the dimension of which is expanded until 
  the convergence criteria are met.

  A complete description of the algorithm can be found in E. R. Davidson, 
  J. Comput. Phys. 17, 87 (1975).

  - Settings for coupled cluster excited state solver (Davidson):

     Calculation type:    valence
     Excitation vectors:  left

     Residual threshold:            0.1000E-10
     Energy threshold:              0.1000E-10

     Number of singlet states:               3
     Max number of iterations:             100

     Max reduced space dimension:          100

     Restarting left vector 1 from file r_001.
     Restarting left vector 2 from file r_002.
     Restarting left vector 3 from file r_003.

  Iteration:                  1
  Reduced space dimension:    3

   Root  Eigenvalue (Re)   Eigenvalue (Im)    |residual|   Delta E (Re)
  ------------------------------------------------------------------------
     1   0.233922187017    0.000000000000     0.1288E+00   0.1327E-01
     2   0.300503783785    0.000000000000     0.1241E+00   0.1221E-01
     3   0.342971283191    0.000000000000     0.1703E+00   0.1311E-01
  ------------------------------------------------------------------------

  Iteration:                  2
  Reduced space dimension:    6

   Root  Eigenvalue (Re)   Eigenvalue (Im)    |residual|   Delta E (Re)
  ------------------------------------------------------------------------
     1   0.247185049086    0.000000000000     0.2736E-01   0.1326E-01
     2   0.312680283436    0.000000000000     0.2554E-01   0.1218E-01
     3   0.357707204016    0.000000000000     0.4196E-01   0.1474E-01
  ------------------------------------------------------------------------

  Iteration:                  3
  Reduced space dimension:    9

   Root  Eigenvalue (Re)   Eigenvalue (Im)    |residual|   Delta E (Re)
  ------------------------------------------------------------------------
     1   0.247073145080    0.000000000000     0.8785E-02   0.1119E-03
     2   0.312620183965    0.000000000000     0.8740E-02   0.6010E-04
     3   0.356006227132    0.000000000000     0.1227E-01   0.1701E-02
  ------------------------------------------------------------------------

  Iteration:                  4
  Reduced space dimension:   12

   Root  Eigenvalue (Re)   Eigenvalue (Im)    |residual|   Delta E (Re)
  ------------------------------------------------------------------------
     1   0.247196105248    0.000000000000     0.2072E-02   0.1230E-03
     2   0.312718425150    0.000000000000     0.2158E-02   0.9824E-04
     3   0.356126639396    0.000000000000     0.4228E-02   0.1204E-03
  ------------------------------------------------------------------------

  Iteration:                  5
  Reduced space dimension:   15

   Root  Eigenvalue (Re)   Eigenvalue (Im)    |residual|   Delta E (Re)
  ------------------------------------------------------------------------
     1   0.247195032614    0.000000000000     0.6215E-03   0.1073E-05
     2   0.312720245847    0.000000000000     0.8451E-03   0.1821E-05
     3   0.356113432174    0.000000000000     0.1204E-02   0.1321E-04
  ------------------------------------------------------------------------

  Iteration:                  6
  Reduced space dimension:   18

   Root  Eigenvalue (Re)   Eigenvalue (Im)    |residual|   Delta E (Re)
  ------------------------------------------------------------------------
     1   0.247193142816    0.000000000000     0.1546E-03   0.1890E-05
     2   0.312714513373    0.000000000000     0.2058E-03   0.5732E-05
     3   0.356080316662    0.000000000000     0.4276E-03   0.3312E-04
  ------------------------------------------------------------------------

  Iteration:                  7
  Reduced space dimension:   21

   Root  Eigenvalue (Re)   Eigenvalue (Im)    |residual|   Delta E (Re)
  ------------------------------------------------------------------------
     1   0.247193993652    0.000000000000     0.4656E-04   0.8508E-06
     2   0.312716502581    0.000000000000     0.5359E-04   0.1989E-05
     3   0.356084495304    0.000000000000     0.1356E-03   0.4179E-05
  ------------------------------------------------------------------------

  Iteration:                  8
  Reduced space dimension:   24

   Root  Eigenvalue (Re)   Eigenvalue (Im)    |residual|   Delta E (Re)
  ------------------------------------------------------------------------
     1   0.247194239930    0.000000000000     0.1271E-04   0.2463E-06
     2   0.312716777710    0.000000000000     0.1739E-04   0.2751E-06
     3   0.356084660087    0.000000000000     0.3779E-04   0.1648E-06
  ------------------------------------------------------------------------

  Iteration:                  9
  Reduced space dimension:   27

   Root  Eigenvalue (Re)   Eigenvalue (Im)    |residual|   Delta E (Re)
  ------------------------------------------------------------------------
     1   0.247194265249    0.000000000000     0.2777E-05   0.2532E-07
     2   0.312716725280    0.000000000000     0.6475E-05   0.5243E-07
     3   0.356085244571    0.000000000000     0.1095E-04   0.5845E-06
  ------------------------------------------------------------------------

  Iteration:                 10
  Reduced space dimension:   30

   Root  Eigenvalue (Re)   Eigenvalue (Im)    |residual|   Delta E (Re)
  ------------------------------------------------------------------------
     1   0.247194255849    0.000000000000     0.6684E-06   0.9400E-08
     2   0.312716690648    0.000000000000     0.4377E-05   0.3463E-07
     3   0.356085108430    0.000000000000     0.3269E-05   0.1361E-06
  ------------------------------------------------------------------------

  Iteration:                 11
  Reduced space dimension:   33

   Root  Eigenvalue (Re)   Eigenvalue (Im)    |residual|   Delta E (Re)
  ------------------------------------------------------------------------
     1   0.247194255348    0.000000000000     0.1779E-06   0.5015E-09
     2   0.312716690497    0.000000000000     0.3244E-05   0.1511E-09
     3   0.356085065584    0.000000000000     0.9863E-06   0.4285E-07
  ------------------------------------------------------------------------

  Iteration:                 12
  Reduced space dimension:   36

   Root  Eigenvalue (Re)   Eigenvalue (Im)    |residual|   Delta E (Re)
  ------------------------------------------------------------------------
     1   0.247194255864    0.000000000000     0.5912E-07   0.5161E-09
     2   0.312716695932    0.000000000000     0.1076E-05   0.5435E-08
     3   0.356085057779    0.000000000000     0.3001E-06   0.7805E-08
  ------------------------------------------------------------------------

  Iteration:                 13
  Reduced space dimension:   39

   Root  Eigenvalue (Re)   Eigenvalue (Im)    |residual|   Delta E (Re)
  ------------------------------------------------------------------------
     1   0.247194255668    0.000000000000     0.2048E-07   0.1957E-09
     2   0.312716696613    0.000000000000     0.4475E-06   0.6809E-09
     3   0.356085057898    0.000000000000     0.1265E-06   0.1193E-09
  ------------------------------------------------------------------------

  Iteration:                 14
  Reduced space dimension:   42

   Root  Eigenvalue (Re)   Eigenvalue (Im)    |residual|   Delta E (Re)
  ------------------------------------------------------------------------
     1   0.247194255549    0.000000000000     0.5943E-08   0.1192E-09
     2   0.312716698143    0.000000000000     0.2315E-06   0.1530E-08
     3   0.356085057099    0.000000000000     0.7831E-07   0.7989E-09
  ------------------------------------------------------------------------

  Iteration:                 15
  Reduced space dimension:   45

   Root  Eigenvalue (Re)   Eigenvalue (Im)    |residual|   Delta E (Re)
  ------------------------------------------------------------------------
     1   0.247194255555    0.000000000000     0.1676E-08   0.5644E-11
     2   0.312716699581    0.000000000000     0.9703E-07   0.1437E-08
     3   0.356085057517    0.000000000000     0.3873E-07   0.4181E-09
  ------------------------------------------------------------------------

  Iteration:                 16
  Reduced space dimension:   48

   Root  Eigenvalue (Re)   Eigenvalue (Im)    |residual|   Delta E (Re)
  ------------------------------------------------------------------------
     1   0.247194255568    0.000000000000     0.4271E-09   0.1342E-10
     2   0.312716699190    0.000000000000     0.3568E-07   0.3903E-09
     3   0.356085057636    0.000000000000     0.1590E-07   0.1190E-09
  ------------------------------------------------------------------------

  Iteration:                 17
  Reduced space dimension:   51

   Root  Eigenvalue (Re)   Eigenvalue (Im)    |residual|   Delta E (Re)
  ------------------------------------------------------------------------
     1   0.247194255572    0.000000000000     0.1269E-09   0.3744E-11
     2   0.312716698756    0.000000000000     0.1272E-07   0.4344E-09
     3   0.356085057590    0.000000000000     0.6238E-08   0.4611E-10
  ------------------------------------------------------------------------

  Iteration:                 18
  Reduced space dimension:   54

   Root  Eigenvalue (Re)   Eigenvalue (Im)    |residual|   Delta E (Re)
  ------------------------------------------------------------------------
     1   0.247194255572    0.000000000000     0.2919E-10   0.2762E-12
     2   0.312716698762    0.000000000000     0.4057E-08   0.5790E-11
     3   0.356085057601    0.000000000000     0.2105E-08   0.1053E-10
  ------------------------------------------------------------------------

  Iteration:                 19
  Reduced space dimension:   57

   Root  Eigenvalue (Re)   Eigenvalue (Im)    |residual|   Delta E (Re)
  ------------------------------------------------------------------------
     1   0.247194255572    0.000000000000     0.7156E-11   0.4149E-13
     2   0.312716698778    0.000000000000     0.1087E-08   0.1582E-10
     3   0.356085057592    0.000000000000     0.6162E-09   0.8942E-11
  ------------------------------------------------------------------------

  Iteration:                 20
  Reduced space dimension:   59

   Root  Eigenvalue (Re)   Eigenvalue (Im)    |residual|   Delta E (Re)
  ------------------------------------------------------------------------
     1   0.247194255572    0.000000000000     0.6573E-11   0.3858E-14
     2   0.312716698778    0.000000000000     0.3280E-09   0.6302E-12
     3   0.356085057593    0.000000000000     0.1871E-09   0.7954E-12
  ------------------------------------------------------------------------

  Iteration:                 21
  Reduced space dimension:   61

   Root  Eigenvalue (Re)   Eigenvalue (Im)    |residual|   Delta E (Re)
  ------------------------------------------------------------------------
     1   0.247194255572    0.000000000000     0.6426E-11   0.5773E-14
     2   0.312716698779    0.000000000000     0.9591E-10   0.6587E-12
     3   0.356085057593    0.000000000000     0.5691E-10   0.4940E-13
  ------------------------------------------------------------------------

  Iteration:                 22
  Reduced space dimension:   63

   Root  Eigenvalue (Re)   Eigenvalue (Im)    |residual|   Delta E (Re)
  ------------------------------------------------------------------------
     1   0.247194255572    0.000000000000     0.6346E-11   0.5135E-14
     2   0.312716698779    0.000000000000     0.2562E-10   0.1837E-12
     3   0.356085057592    0.000000000000     0.1508E-10   0.2617E-12
  ------------------------------------------------------------------------

  Iteration:                 23
  Reduced space dimension:   65

   Root  Eigenvalue (Re)   Eigenvalue (Im)    |residual|   Delta E (Re)
  ------------------------------------------------------------------------
     1   0.247194255572    0.000000000000     0.6339E-11   0.1860E-14
     2   0.312716698779    0.000000000000     0.6500E-11   0.6234E-13
     3   0.356085057592    0.000000000000     0.3740E-11   0.1000E-12
  ------------------------------------------------------------------------
  Convergence criterion met in 23 iterations!

  - Excitation vector amplitudes:

     Electronic state nr. 1

     Energy (Hartree):                  0.247194255572
     Fraction singles (|L1|/|L|):       0.942536368057

     Largest single amplitudes:
     -----------------------------------
        a       i         L(a,i)
     -----------------------------------
        1      6       -0.934321066334
        4      6       -0.114002382605
        6      6        0.032814400825
       13      6        0.027947643733
        1      3        0.010930020792
        1      5       -0.007879253273
       22      6       -0.007408446952
       10      6       -0.006944886702
       19      5        0.006882560535
        9      6        0.006676723237
     ------------------------------------

     Largest double amplitudes:
     --------------------------------------------------
        a      i       b      j         L(ai,bj)
     --------------------------------------------------
        2      4       1      6        0.171079645375
        6      5       1      6       -0.100212340581
        3      4       1      6        0.099658455494
        1      5       1      6        0.089486547885
        4      5       1      6        0.079266906023
        1      6       5      6        0.071510175859
        7      4       1      6       -0.068318341917
        1      2       1      6        0.065029437021
        4      4       2      6        0.055727685952
        3      5       2      6        0.042559408817
     --------------------------------------------------

     Electronic state nr. 2

     Energy (Hartree):                  0.312716698779
     Fraction singles (|L1|/|L|):       0.947346929585

     Largest single amplitudes:
     -----------------------------------
        a       i         L(a,i)
     -----------------------------------
        2      6        0.929176283477
        3      6        0.170171916892
        7      6       -0.067040287511
       14      6        0.019343770379
        2      3       -0.010988929730
       12      6       -0.005562563577
        8      2       -0.005268480761
        2      5        0.005150490902
        5      4       -0.004776593204
       11      4       -0.003612608696
     ------------------------------------

     Largest double amplitudes:
     --------------------------------------------------
        a      i       b      j         L(ai,bj)
     --------------------------------------------------
        1      5       2      6       -0.127019523012
        2      4       2      6       -0.118729473864
        3      4       2      6       -0.091137477755
        6      5       2      6        0.082397334662
        7      4       2      6        0.081191332740
        1      2       2      6       -0.072465986377
        4      5       2      6       -0.072390631931
        2      6       5      6       -0.065336366666
        3      5       1      6       -0.053276119555
        4      4       1      6       -0.048446470294
     --------------------------------------------------

     Electronic state nr. 3

     Energy (Hartree):                  0.356085057592
     Fraction singles (|L1|/|L|):       0.938777046182

     Largest single amplitudes:
     -----------------------------------
        a       i         L(a,i)
     -----------------------------------
        1      5        0.920088349284
        2      4       -0.130880085863
        4      5        0.082954102260
        1      2       -0.066949838484
        3      4       -0.051783287687
        5      6       -0.035952688612
       13      5       -0.027083554110
        7      4        0.022267567555
        4      2       -0.019543419768
       10      5        0.012292234036
     ------------------------------------

     Largest double amplitudes:
     --------------------------------------------------
        a      i       b      j         L(ai,bj)
     --------------------------------------------------
        1      5       1      5       -0.160292538733
        2      4       1      5       -0.141010853923
        3      4       1      5       -0.088409690094
        1      5       5      6       -0.085732644498
        4      4       2      5       -0.059886875057
        1      5       6      5        0.058600304295
        2      5       2      5       -0.056836923109
        7      4       1      5        0.051021542268
        1      2       3      4        0.050766399787
        1      2       2      4        0.050263933720
     --------------------------------------------------

     - Electronic excitation energies:

                                      Excitation energy
                          ------------------------------------------
      State                (Hartree)             (eV)
     ---------------------------------------------------------------
        1                  0.247194255572        6.726498310302
        2                  0.312716698779        8.509454805378
        3                  0.356085057592        9.689567958102
     ---------------------------------------------------------------
     eV/Hartree (CODATA 2014): 27.21138602

  - Finished solving the CCSD excited state equations (left)

     Total wall time (sec):              0.50215
     Total cpu time (sec):               1.00179


  6) Calculation of the transition moments (EOM)

  :: EOM properties calculation

  - Summary of EOM properties calculation:

     State 1:
     ----------
     Calculation type:                             EOM
     Excitation energy [E_h]:           0.247194255572
     Excitation energy [eV]:            6.726498310303
     Hartree-to-eV (CODATA 2014):          27.21138602

                   Transition moments [a.u.]         Transition strength [a.u.]
     --------------------------------------------------------------------------
     Comp. q     < k |q| 0 >       < 0 |q| k >        < 0 |q| k > < k |q| 0 >
     --------------------------------------------------------------------------
     X           0.0004665158      0.0008903044            0.0000004153
     Y           0.0027022345      0.0052703759            0.0000142418
     Z          -0.2024326697     -0.3970439121            0.0803746591
     --------------------------------------------------------------------------
     Oscillator strength:      0.013247851457

     State 2:
     ----------
     Calculation type:                             EOM
     Excitation energy [E_h]:           0.312716698779
     Excitation energy [eV]:            8.509454805379
     Hartree-to-eV (CODATA 2014):          27.21138602

                   Transition moments [a.u.]         Transition strength [a.u.]
     --------------------------------------------------------------------------
     Comp. q     < k |q| 0 >       < 0 |q| k >        < 0 |q| k > < k |q| 0 >
     --------------------------------------------------------------------------
     X           0.0080987108      0.0154960656            0.0001254982
     Y          -0.0000397230     -0.0000465891            0.0000000019
     Z          -0.0000783294     -0.0001426371            0.0000000112
     --------------------------------------------------------------------------
     Oscillator strength:      0.000026166294

     State 3:
     ----------
     Calculation type:                             EOM
     Excitation energy [E_h]:           0.356085057592
     Excitation energy [eV]:            9.689567958102
     Hartree-to-eV (CODATA 2014):          27.21138602

                   Transition moments [a.u.]         Transition strength [a.u.]
     --------------------------------------------------------------------------
     Comp. q     < k |q| 0 >       < 0 |q| k >        < 0 |q| k > < k |q| 0 >
     --------------------------------------------------------------------------
     X           0.0007530611      0.0014776867            0.0000011128
     Y          -0.4685892776     -0.9219121145            0.4319981317
     Z           0.0045071524      0.0088103669            0.0000397097
     --------------------------------------------------------------------------
     Oscillator strength:      0.102561743915

  - Timings for the CCSD response calculation

     Total wall time (sec):              1.39911
     Total cpu time (sec):               2.78956

     Peak memory usage during the execution of eT: 16.438888 MB

  Calculation ended: 2020-11-26 18:35:24 UTC +01:00

  eT terminated successfully!
