system
  name: HOF He
  charge: 0
  multiplicity: 1
end system

do
  response
end do

method
  hf
  ccs
end method

solver scf
  gradient threshold: 1.0d-11
end solver scf

solver cholesky
  threshold: 1.0d-11
end solver cholesky

cc response
  lr
  polarizabilities: {11,13}
  frequencies: {0.02d0, 0.04d0, 0.06d0}
  dipole length
  transition moments
end cc response

solver cc es
  singlet states: 4
  residual threshold: 1.0d-11
end solver cc es

solver cc multipliers
  algorithm: davidson
  threshold: 1.0d-11
end solver cc multipliers

solver cc gs
  omega threshold: 1.0d-11
end solver cc gs

solver cc response
  threshold: 1.0d-11
end solver cc response

geometry
units: bohr
basis: cc-pVDZ
H    1.638033502034   1.136556880358   9.448630622825  
F   -1.638033502034   1.136556880358   9.448630622825   
O    0.000000000000  -0.143222342981   9.448630622825   
He   0.188972612457   0.188972612457  14.172945934238
end geometry
