system
   name: H2O He
   charge: 0
end system

do
   time dependent state
end do

method
   hf
   ccsd
end method

memory
   available: 8
end memory

integrals
   mo eri in memory
   t1 eri in memory
end integrals

solver cholesky
   threshold: 1.0d-12
end solver cholesky

solver scf
  algorithm:          scf-diis
  energy threshold:   1.0d-10
  gradient threshold: 1.0d-10
end solver scf

solver cc gs
   omega threshold:  1.0d-10
   energy threshold: 1.0d-10
end solver cc gs

cc td
   propagation
end cc td

solver cc multipliers
   algorithm: davidson
   threshold: 1.0d-10
end solver cc multipliers

solver cc propagation
   initial time: 0.0
   final time: 0.1
   time step: 0.02
   integrator: gl2
   energy output
   dipole moment output
   implicit threshold: 1.0d-10
   steps between output: 1
end solver cc propagation

electric field
    envelope: {2}
    x polarization: {0.0}
    y polarization: {0.0}
    z polarization: {1.0}
    central time: {0.1}
    width: {0.2}
    central angular frequency: {2.8735643}
    peak strength: {1.0}
    phase shift: {0.0}
end electric field

geometry
basis: cc-pVDZ
   H          0.86681        0.60144        5.00000
   H         -0.86681        0.60144        5.00000
   O          0.00000       -0.07579        5.00000
   He         0.10000       -0.02000        7.53000
end geometry
