


                     eT 1.1 - an electronic structure program

  ------------------------------------------------------------------------
   Author list in alphabetical order:
  ------------------------------------------------------------------------
   J. H. Andersen, A. Balbi, S. Coriani, S. D. Folkestad, T. Giovannini, 
   L. Goletto, T. S. Haugland, A. Hutcheson, I-M. Høyvik, E. F. Kjønstad, 
   H. Koch, T. Moitra, R. H. Myhre, A. C. Paul, S. Roet, M. Scavino, 
   A. Skeidsvoll, Å. H. Tveten
  ------------------------------------------------------------------------
   J. Chem. Phys. 152, 184103 (2020); https://doi.org/10.1063/5.0004713


   This is eT version 1.1.0, Nachspiel
  ------------------------------------------------------------
  Compiled by:        alexancp
  Compiled on:        NTNU16748
  Configuration date: 2020-11-27 09:33:39 UTC +01:00
  Git branch:         speedup-of-tests
  Git hash:           8c21e529e365b13ed1e9193264a7eb1a530e7451
  Fortran compiler:   GNU 9.3.0
  C compiler:         GNU 9.3.0
  C++ compiler:       GNU 9.3.0
  LAPACK type:        MKL
  BLAS type:          MKL
  64-bit integers:    ON
  OpenMP:             ON
  PCM:                OFF
  Forced batching:    OFF
  Runtime checks:     OFF
  ------------------------------------------------------------

  Calculation started: 2020-11-27 09:53:01 UTC +01:00


  :: Input file
  ================

     Note: geometry section is excluded from this print

     system
        name: H2O He
        charge: 0
     end system

     do
        excited state
     end do

     memory
        available: 8
     end memory

     method
        hf
        cc3
     end method

     frozen orbitals
        core
     end frozen orbitals

     solver scf
        energy threshold:   1.0d-11
        gradient threshold: 1.0d-11
     end solver scf

     solver cholesky
        threshold: 1.0d-11
     end solver cholesky

     solver cc gs
        energy threshold: 1.0d-11
        omega threshold:  1.0d-11
     end solver cc gs

     solver cc es
        algorithm:          diis
        singlet states:     1
        residual threshold: 1.0d-11
        right eigenvectors
     end solver cc es


  Running on 2 OMP threads
  Memory available for calculation: 8.000000 GB


  :: Molecular system specifications
  =====================================

     Name:             h2o he
     Charge:           0
     Multiplicity:     1
     Coordinate units: angstrom

     Pure basis functions:         29
     Cartesian basis functions:    30
     Primitive basis functions:    56

     Nuclear repulsion energy (a.u.):             12.167611407170
     Bohr/angstrom value (CODATA 2010):            0.529177210920

     ==============================================================================
                                     Geometry (angstrom)
     ==============================================================================
        Atom           X                  Y                  Z         # in input
     ==============================================================================
        Basis: cc-pvdz
        1 H      0.866810000000     0.601440000000     5.000000000000        1
        2 H     -0.866810000000     0.601440000000     5.000000000000        2
        3 O      0.000000000000    -0.075790000000     5.000000000000        3
        4 He     0.000000000000     0.000000000000     7.500000000000        4
     ==============================================================================

     ==============================================================================
                                     Geometry (a.u.)
     ==============================================================================
        Atom           X                  Y                  Z         # in input
     ==============================================================================
        Basis: cc-pvdz
        1 H      1.638033502034     1.136556880358     9.448630622825        1
        2 H     -1.638033502034     1.136556880358     9.448630622825        2
        3 O      0.000000000000    -0.143222342981     9.448630622825        3
        4 He     0.000000000000     0.000000000000    14.172945934238        4
     ==============================================================================


  :: RHF wavefunction
  ======================

  - Cholesky decomposition of AO overlap to get linearly independent orbitals:

  - Orbital details:

     Number of occupied orbitals:         6
     Number of virtual orbitals:         23
     Number of molecular orbitals:       29
     Number of atomic orbitals:          29


  :: Hartree-Fock engine
  =========================

  Drives the calculation of the Hartree-Fock state.

  This is a RHF ground state calculation.
  The following tasks will be performed:

     1) Generate initial SAD density
     2) Calculation of reference state (SCF-DIIS algorithm)


  1) Generate initial SAD density


  2) Calculation of reference state (SCF-DIIS algorithm)

   - Self-consistent field DIIS Hartree-Fock solver
  ----------------------------------------------------

  A DIIS-accelerated Roothan-Hall self-consistent field solver. A least-square 
  DIIS fit is performed on the previous Fock matrices and associated gradients. 
  Following the Roothan-Hall update of the density, the DIIS-fitted Fock 
  matrix is used to get the next orbital coefficients.

  - Hartree-Fock solver settings:

     DIIS dimension:                         8
     Cumulative Fock threshold:       0.10E+01

     Residual threshold:            0.1000E-10
     Energy threshold:              0.1000E-10

     Coulomb screening threshold:   0.1000E-16
     Exchange screening threshold:  0.1000E-14
     Fock precision:                0.1000E-33
     Integral cutoff:               0.1000E-16

  - Setting initial AO density to SAD

     Energy of initial guess:               -78.492359869026
     Number of electrons in guess:           12.000000000000

  Iteration       Energy (a.u.)      Max(grad.)    Delta E (a.u.)
  ---------------------------------------------------------------
     1           -78.796357979409     0.9059E-01     0.7880E+02
     2           -78.828453237456     0.7130E-01     0.3210E-01
     3           -78.843222387150     0.8290E-02     0.1477E-01
     4           -78.843604035493     0.2415E-02     0.3816E-03
     5           -78.843645357974     0.3300E-03     0.4132E-04
     6           -78.843646180978     0.5523E-04     0.8230E-06
     7           -78.843646204481     0.5847E-05     0.2350E-07
     8           -78.843646205182     0.2352E-05     0.7013E-09
     9           -78.843646205256     0.2067E-06     0.7361E-10
    10           -78.843646205256     0.1571E-07     0.3411E-12
    11           -78.843646205256     0.4353E-08     0.1421E-12
    12           -78.843646205256     0.1445E-08     0.4263E-13
    13           -78.843646205256     0.5059E-09     0.2842E-13
    14           -78.843646205256     0.1398E-09     0.8527E-13
    15           -78.843646205256     0.1658E-10     0.0000E+00
    16           -78.843646205256     0.3176E-11     0.2842E-13
  ---------------------------------------------------------------
  Convergence criterion met in 16 iterations!

  - Summary of RHF wavefunction energetics (a.u.):

     HOMO-LUMO gap:                  0.645693538850
     Nuclear repulsion energy:      12.167611407170
     Electronic energy:            -91.011257612426
     Total energy:                 -78.843646205256

  - Molecular orbital energies

  -----------------------------------------------------------------------------------
   1 -20.574170134846   9   0.704369642066  17   1.683007211565  25   3.175825620317
   2  -1.277670969960  10   0.746644458606  18   1.804158282275  26   3.209670688472
   3  -0.898566339786  11   1.154872019360  19   1.904443428944  27   3.328214780825
   4  -0.629851886036  12   1.170757684567  20   2.148833127508  28   3.722194253750
   5  -0.541619523280  13   1.267981259584  21   2.200412685175  29   3.985504871044
   6  -0.485766684619  14   1.450875649004  22   2.540779159787
   7   0.159926854231  15   1.465314947189  23   2.542098755120
   8   0.229284017832  16   1.474603833180  24   2.562776976106
  -----------------------------------------------------------------------------------

  - Timings for the RHF ground state calculation

     Total wall time (sec):              0.58562
     Total cpu time (sec):               1.12673

  - Preparation for frozen core approximation

     There are 1 frozen core orbitals.


  :: CC3 wavefunction
  ======================

     Bath orbital(s):         False
     Core-valence separation: False

   - Number of orbitals:

     Occupied orbitals:    5
     Virtual orbitals:     23
     Molecular orbitals:   28
     Atomic orbitals:      29

   - Number of ground state amplitudes:

     Single excitation amplitudes:  115
     Double excitation amplitudes:  6670


  :: Excited state coupled cluster engine
  ==========================================

  Calculates the coupled cluster excitation vectors and excitation energies

  This is a CC3 excited state calculation.
  The following tasks will be performed:

     1) Cholesky decomposition of the electron repulsion integrals
     2) Preparation of MO basis and integrals
     3) Calculation of the ground state (diis algorithm)
     4) Calculation of the excited state (diis algorithm)


  1) Cholesky decomposition of the electron repulsion integrals

   - Cholesky decomposition of electronic repulsion integrals solver
  ---------------------------------------------------------------------

  Performs a Cholesky decomposition of the two-electron electronic repulsion 
  integrals in the atomic orbital basis,

  (ab|cd) = sum_J L_ab^J L_cd^J.

  Once the Cholesky basis has been determined, the vectors L^J are constructed 
  and stored to disk. These may either be used directly, or be transformed 
  to the MO basis for use in post-HF calculations. For more information, 
  see S. D. Folkestad, E. F. Kjønstad and H. Koch, JCP, 150(19), (2019)

  - Cholesky decomposition settings:

     Target threshold is:   0.10E-10
     Span factor:           0.10E-01
     Max qual:                  1000

  - Cholesky decomposition system details:

     Total number of AOs:                    29
     Total number of shell pairs:           120
     Total number of AO pairs:              435

     Significant shell pairs:               118
     Significant AO pairs:                  431

     Construct shell pairs:                 120
     Construct AO pairs:                    435

  Iter.  #Sign. ao pairs / shell pairs   Max diagonal    #Qualified    #Cholesky    Cholesky array size
  -------------------------------------------------------------------------------------------------------
     1               405 /     107       0.47383E+01         147             42             17010
     2               318 /      92       0.47164E-01         234            111             35298
     3               247 /      75       0.46943E-03         178            183             45201
     4               181 /      53       0.38323E-05         146            267             48327
     5                72 /      20       0.38254E-07          73            324             23328
     6                 0 /       0       0.36899E-09          39            345                 0
  -------------------------------------------------------------------------------------------------------

  - Summary of Cholesky decomposition of electronic repulsion integrals:

     Final number of Cholesky vectors: 345

 - Testing the Cholesky decomposition decomposition electronic repulsion integrals:

     Maximal difference between approximate and actual diagonal:              0.9701E-11
     Minimal element of difference between approximate and actual diagonal:  -0.1238E-14

  - Settings for integral handling:

     Cholesky vectors in memory: True
     ERI matrix in memory:       False
     T1 ERI matrix in memory:    True

  - Finished decomposing the ERIs.

     Total wall time (sec):              0.18697
     Total cpu time (sec):               0.37498


  2) Preparation of MO basis and integrals


  3) Calculation of the ground state (diis algorithm)

   - DIIS coupled cluster ground state solver
  ----------------------------------------------

  A DIIS CC ground state amplitude equations solver. It uses an extrapolation 
  of previous quasi-Newton perturbation theory estimates of the next amplitudes. 
  See Helgaker et al., Molecular Electronic Structure Theory, Chapter 
  13.

  - DIIS CC ground state solver settings:

     Residual threshold:            0.1000E-10
     Energy threshold:              0.1000E-10

     DIIS dimension:                   8
     Max number of iterations:       100

     Storage: disk

  Iteration    Energy (a.u.)        |omega|       Delta E (a.u.)
  ---------------------------------------------------------------
    1           -79.081926712775     0.9247E-01     0.7908E+02
    2           -79.094319922732     0.2793E-01     0.1239E-01
    3           -79.101728999235     0.6294E-02     0.7409E-02
    4           -79.102236340903     0.1971E-02     0.5073E-03
    5           -79.102290618429     0.5213E-03     0.5428E-04
    6           -79.102298163316     0.1969E-03     0.7545E-05
    7           -79.102289076836     0.4684E-04     0.9086E-05
    8           -79.102288668697     0.1109E-04     0.4081E-06
    9           -79.102288206446     0.4160E-05     0.4623E-06
   10           -79.102288028514     0.1722E-05     0.1779E-06
   11           -79.102288107035     0.6749E-06     0.7852E-07
   12           -79.102288110943     0.2758E-06     0.3908E-08
   13           -79.102288115828     0.1001E-06     0.4885E-08
   14           -79.102288108350     0.3184E-07     0.7478E-08
   15           -79.102288108155     0.8196E-08     0.1952E-09
   16           -79.102288108571     0.1990E-08     0.4161E-09
   17           -79.102288108666     0.6227E-09     0.9564E-10
   18           -79.102288108708     0.1236E-09     0.4168E-10
   19           -79.102288108713     0.3736E-10     0.4846E-11
   20           -79.102288108715     0.1263E-10     0.1847E-11
   21           -79.102288108716     0.3579E-11     0.7105E-12
  ---------------------------------------------------------------
  Convergence criterion met in 21 iterations!

  - Ground state summary:

     Final ground state energy (a.u.):   -79.102288108716

     Correlation energy (a.u.):           -0.258641903459

     Largest single amplitudes:
     -----------------------------------
        a       i         t(a,i)
     -----------------------------------
        1      4        0.015391622704
       14      3       -0.008974957048
        7      3        0.007313033881
        4      4        0.006900592149
        2      3        0.006051030604
       15      4       -0.005701174742
        6      1        0.005002521129
       13      4        0.004901170587
        5      5        0.004375869157
        3      3        0.004139258249
     ------------------------------------

     Largest double amplitudes:
     --------------------------------------------------
        a      i       b      j         t(ai,bj)
     --------------------------------------------------
        2      3       2      3       -0.049932189775
        5      5       5      5       -0.046521740178
        9      2       9      2       -0.042892203928
        3      3       3      3       -0.037787490446
        1      4       1      4       -0.037336309246
        6      4       6      4       -0.034968955069
       16      2      16      2       -0.032093113920
       17      2      17      2       -0.032032176368
        2      3       1      4       -0.031591635303
       18      2      18      2       -0.031194913084
     --------------------------------------------------

     T1 diagnostic (|T1|/sqrt(N_e)): 0.007248856301

  - Finished solving the CC3 ground state equations

     Total wall time (sec):              0.37120
     Total cpu time (sec):               0.74315


  4) Calculation of the excited state (diis algorithm)
     Calculating right vectors

   - DIIS coupled cluster excited state solver
  -----------------------------------------------

  A DIIS solver that solves for the lowest eigenvalues and  the right 
  eigenvectors of the Jacobian matrix, A. The eigenvalue  problem is solved 
  by DIIS extrapolation of residuals for each  eigenvector until the convergence 
  criteria are met.

  More on the DIIS algorithm can be found in P. Pulay, Chemical Physics 
  Letters, 73(2), 393-398 (1980).

  - Settings for coupled cluster excited state solver (DIIS):

     Calculation type:    valence
     Excitation vectors:  right

     Residual threshold:            0.1000E-10

     Number of singlet states:               1
     Max number of iterations:             100

     DIIS dimension:                        20


  Iteration:                  1

   Root     Eigenvalue (Re)     Residual norm
  -----------------------------------------------
     1      0.374053561726       0.4313E+00
  -----------------------------------------------

  Iteration:                  2

   Root     Eigenvalue (Re)     Residual norm
  -----------------------------------------------
     1      0.255732897786       0.9917E-01
  -----------------------------------------------

  Iteration:                  3

   Root     Eigenvalue (Re)     Residual norm
  -----------------------------------------------
     1      0.246911905945       0.3349E-01
  -----------------------------------------------

  Iteration:                  4

   Root     Eigenvalue (Re)     Residual norm
  -----------------------------------------------
     1      0.247109827713       0.1365E-01
  -----------------------------------------------

  Iteration:                  5

   Root     Eigenvalue (Re)     Residual norm
  -----------------------------------------------
     1      0.247229299611       0.3080E-02
  -----------------------------------------------

  Iteration:                  6

   Root     Eigenvalue (Re)     Residual norm
  -----------------------------------------------
     1      0.247290942104       0.8256E-03
  -----------------------------------------------

  Iteration:                  7

   Root     Eigenvalue (Re)     Residual norm
  -----------------------------------------------
     1      0.247300333975       0.3231E-03
  -----------------------------------------------

  Iteration:                  8

   Root     Eigenvalue (Re)     Residual norm
  -----------------------------------------------
     1      0.247300774941       0.1559E-03
  -----------------------------------------------

  Iteration:                  9

   Root     Eigenvalue (Re)     Residual norm
  -----------------------------------------------
     1      0.247302207417       0.9653E-04
  -----------------------------------------------

  Iteration:                 10

   Root     Eigenvalue (Re)     Residual norm
  -----------------------------------------------
     1      0.247302709606       0.5703E-04
  -----------------------------------------------

  Iteration:                 11

   Root     Eigenvalue (Re)     Residual norm
  -----------------------------------------------
     1      0.247302048497       0.2457E-04
  -----------------------------------------------

  Iteration:                 12

   Root     Eigenvalue (Re)     Residual norm
  -----------------------------------------------
     1      0.247301817976       0.9263E-05
  -----------------------------------------------

  Iteration:                 13

   Root     Eigenvalue (Re)     Residual norm
  -----------------------------------------------
     1      0.247301803769       0.3231E-05
  -----------------------------------------------

  Iteration:                 14

   Root     Eigenvalue (Re)     Residual norm
  -----------------------------------------------
     1      0.247301795051       0.7794E-06
  -----------------------------------------------

  Iteration:                 15

   Root     Eigenvalue (Re)     Residual norm
  -----------------------------------------------
     1      0.247301790680       0.1786E-06
  -----------------------------------------------

  Iteration:                 16

   Root     Eigenvalue (Re)     Residual norm
  -----------------------------------------------
     1      0.247301792030       0.4634E-07
  -----------------------------------------------

  Iteration:                 17

   Root     Eigenvalue (Re)     Residual norm
  -----------------------------------------------
     1      0.247301792259       0.1208E-07
  -----------------------------------------------

  Iteration:                 18

   Root     Eigenvalue (Re)     Residual norm
  -----------------------------------------------
     1      0.247301792038       0.3571E-08
  -----------------------------------------------

  Iteration:                 19

   Root     Eigenvalue (Re)     Residual norm
  -----------------------------------------------
     1      0.247301791936       0.1028E-08
  -----------------------------------------------

  Iteration:                 20

   Root     Eigenvalue (Re)     Residual norm
  -----------------------------------------------
     1      0.247301791915       0.2735E-09
  -----------------------------------------------

  Iteration:                 21

   Root     Eigenvalue (Re)     Residual norm
  -----------------------------------------------
     1      0.247301791911       0.8270E-10
  -----------------------------------------------

  Iteration:                 22

   Root     Eigenvalue (Re)     Residual norm
  -----------------------------------------------
     1      0.247301791911       0.3103E-10
  -----------------------------------------------

  Iteration:                 23

   Root     Eigenvalue (Re)     Residual norm
  -----------------------------------------------
     1      0.247301791911       0.1035E-10
  -----------------------------------------------

  Iteration:                 24

   Root     Eigenvalue (Re)     Residual norm
  -----------------------------------------------
     1      0.247301791911       0.3296E-11
  -----------------------------------------------
  Convergence criterion met in 24 iterations!

  - Resorting roots according to excitation energy.

  - Stored converged states to file.

  - Excitation vector amplitudes:

     Electronic state nr. 1

     Energy (Hartree):                  0.247301791911
     Fraction singles (|R1|/|R|):       0.967112972279

     Largest single amplitudes:
     -----------------------------------
        a       i         R(a,i)
     -----------------------------------
        1      5        0.956997747305
        4      5        0.128021283993
        6      5       -0.038014533874
       13      5       -0.030158920135
        1      2       -0.011703780446
       22      5        0.008611993054
        1      4        0.008541891351
       10      5        0.008517433097
        9      5       -0.007964736626
       19      4       -0.007842277242
     ------------------------------------

     Largest double amplitudes:
     --------------------------------------------------
        a      i       b      j         R(ai,bj)
     --------------------------------------------------
        2      3       1      5       -0.116913515694
        1      4       1      5       -0.106916299867
        1      3       2      5       -0.069962560396
        1      5       5      5       -0.069432283760
        1      1       1      5       -0.067963386702
        3      3       1      5       -0.060241529881
        6      4       1      5        0.048072957325
        4      4       1      5       -0.042383247931
        4      3       2      5       -0.036260876298
        2      4       2      5       -0.033658822195
     --------------------------------------------------

     - Electronic excitation energies:

                                      Excitation energy
                          ------------------------------------------
      State                (Hartree)             (eV)
     ---------------------------------------------------------------
        1                  0.247301791911        6.729424523129
     ---------------------------------------------------------------
     eV/Hartree (CODATA 2014): 27.21138602

  - Finished solving the CC3 excited state equations (right)

     Total wall time (sec):              0.52390
     Total cpu time (sec):               1.04671

  - Timings for the CC3 excited state calculation

     Total wall time (sec):              1.08235
     Total cpu time (sec):               2.16512

     Peak memory usage during the execution of eT: 14.654480 MB

  Calculation ended: 2020-11-27 09:53:03 UTC +01:00

  eT terminated successfully!
