


                     eT - an electronic structure program

  ------------------------------------------------------------------------
   Author list in alphabetical order:
  ------------------------------------------------------------------------
   J. H. Andersen, A. Balbi, S. Coriani, S. D. Folkestad, T. Giovannini, 
   L. Goletto, T. S. Haugland, A. Hutcheson, I-M. Høyvik, E. F. Kjønstad, 
   H. Koch, T. Moitra, R. H. Myhre, A. C. Paul, M. Scavino, A. Skeidsvoll, 
   Å. H. Tveten
  ------------------------------------------------------------------------


  :: Input file
  ================

     Note: geometry section is excluded from this print

     system
        name: H2O He
        charge: 0
     end system

     do
        time dependent state
     end do

     method
        hf
        ccsd
     end method

     memory
        available: 8
     end memory

     solver cholesky
        threshold: 1.0d-12
     end solver cholesky

     solver scf
       algorithm:          scf-diis
       energy threshold:   1.0d-10
       gradient threshold: 1.0d-10
     end solver scf

     solver cc gs
        omega threshold:  1.0d-10
        energy threshold: 1.0d-10
     end solver cc gs

     cc td
        propagation
     end cc td

     solver cc multipliers
        algorithm: davidson
        threshold: 1.0d-10
     end solver cc multipliers

     solver cc propagation
        initial time: 0.0
        final time: 0.1
        time step: 0.02
        integrator: euler
        energy output
        dipole moment output
        implicit threshold: 1.0d-10
        steps between output: 1
     end solver cc propagation

     electric field
         envelope: {2}
         x polarization: {0.0}
         y polarization: {0.0}
         z polarization: {1.0}
         central time: {0.1}
         width: {0.2}
         central angular frequency: {2.8735643}
         peak strength: {1.0}
         phase shift: {0.0}
     end electric field


  Running on 2 OMP thread(s)
  Memory available for calculation: 8.000000 GB


  :: Molecular system specifications
  =====================================

     Name:             h2o he
     Charge:           0
     Multiplicity:     1
     Coordinate units: angstrom

     Pure basis functions:         29
     Cartesian basis functions:    30
     Primitive basis functions:    56

     Nuclear repulsion energy (a.u.):             12.116100574587
     Bohr/angstrom value (CODATA 2010):            0.529177210920

     ==============================================================================
                                     Geometry (angstrom)
     ==============================================================================
        Atom           X                  Y                  Z         # in input
     ==============================================================================
        Basis: cc-pvdz
        1 H      0.866810000000     0.601440000000     5.000000000000        1
        2 H     -0.866810000000     0.601440000000     5.000000000000        2
        3 O      0.000000000000    -0.075790000000     5.000000000000        3
        4 He     0.100000000000    -0.020000000000     7.530000000000        4
     ==============================================================================

     ==============================================================================
                                     Geometry (a.u.)
     ==============================================================================
        Atom           X                  Y                  Z         # in input
     ==============================================================================
        Basis: cc-pvdz
        1 H      1.638033502034     1.136556880358     9.448630622825        1
        2 H     -1.638033502034     1.136556880358     9.448630622825        2
        3 O      0.000000000000    -0.143222342981     9.448630622825        3
        4 He     0.188972612457    -0.037794522491    14.229637717975        4
     ==============================================================================

   - Cholesky decomposition of electronic repulsion integrals solver
  ---------------------------------------------------------------------

  Performs a Cholesky decomposition of the two-electron electronic repulsion 
  integrals in the atomic orbital basis,

  (ab|cd) = sum_J L_ab^J L_cd^J.

  Once the Cholesky basis has been determined, the vectors L^J are constructed 
  and stored to disk. These may either be used directly, or be transformed 
  to the MO basis for use in post-HF calculations. For more information, 
  see S. D. Folkestad, E. F. Kjønstad and H. Koch, JCP, 150(19), (2019)

  - Cholesky decomposition settings:

     Target threshold is:   0.10E-11
     Span factor:           0.10E-01
     Max qual:                  1000

  - Cholesky decomposition system details:

     Total number of AOs:                    29
     Total number of shell pairs:           120
     Total number of AO pairs:              435

     Significant shell pairs:               118
     Significant AO pairs:                  431

     Construct shell pairs:                 120
     Construct AO pairs:                    435

  Iter.  #Sign. ao pairs / shell pairs   Max diagonal    #Qualified    #Cholesky    Cholesky array size
  -------------------------------------------------------------------------------------------------------
     1               406 /     108       0.47383E+01         147             42             17052
     2               319 /      93       0.47165E-01         234            111             35409
     3               250 /      76       0.46944E-03         178            183             45750
     4               187 /      55       0.38270E-05         145            265             49555
     5                87 /      25       0.38106E-07          78            324             28188
     6                21 /       3       0.37202E-09          43            349              7329
     7                 0 /       0       0.36652E-11           7            354                 0
  -------------------------------------------------------------------------------------------------------

  - Summary of Cholesky decomposition of electronic repulsion integrals:

     Final number of Cholesky vectors: 354

 - Testing the Cholesky decomposition decomposition electronic repulsion integrals:

     Maximal difference between approximate and actual diagonal:              0.7161E-12
     Minimal element of difference between approximate and actual diagonal:  -0.1110E-14

  - Finished decomposing the ERIs.

     Total wall time (sec):              0.10700
     Total cpu time (sec):               0.16918


  :: RHF wavefunction
  ======================

  - Cholesky decomposition of AO overlap to get linearly independent orbitals:

  - Orbital details:

     Number of occupied orbitals:         6
     Number of virtual orbitals:         23
     Number of molecular orbitals:       29
     Number of atomic orbitals:          29


  :: Hartree-Fock engine
  =========================

  Drives the calculation of the Hartree-Fock state.

  This is a RHF ground state calculation.
  The following tasks will be performed:

     1) Generate initial SAD density
     2) Calculation of reference state (SCF-DIIS algorithm)


  1) Generate initial SAD density


  2) Calculation of reference state (SCF-DIIS algorithm)

   - Self-consistent field DIIS Hartree-Fock solver
  ----------------------------------------------------

  A DIIS-accelerated Roothan-Hall self-consistent field solver. A least-square 
  DIIS fit is performed on the previous Fock matrices and associated gradients. 
  Following the Roothan-Hall update of the density, the DIIS-fitted Fock 
  matrix is used to get the next orbital coefficients.

  - Hartree-Fock solver settings:

     DIIS dimension:                         8
     Cumulative Fock threshold:       0.10E+01

     Energy threshold:              0.1000E-09
     Gradient threshold:            0.1000E-09

     Coulomb screening threshold:   0.1000E-15
     Exchange screening threshold:  0.1000E-13
     Fock precision:                0.1000E-31
     Integral cutoff:               0.1000E-15

  - Setting initial AO density to SAD

     Energy of initial guess:               -78.492022836338
     Number of electrons in guess:           12.000000000000

  Iteration       Energy (a.u.)      Max(grad.)    Delta E (a.u.)
  ---------------------------------------------------------------
     1           -78.796606592630     0.9053E-01     0.7880E+02
     2           -78.828675852673     0.7128E-01     0.3207E-01
     3           -78.843428154462     0.8290E-02     0.1475E-01
     4           -78.843809541675     0.2414E-02     0.3814E-03
     5           -78.843850846799     0.3301E-03     0.4131E-04
     6           -78.843851669326     0.5527E-04     0.8225E-06
     7           -78.843851692851     0.5865E-05     0.2353E-07
     8           -78.843851693557     0.2356E-05     0.7053E-09
     9           -78.843851693630     0.2071E-06     0.7378E-10
    10           -78.843851693631     0.1594E-07     0.3411E-12
    11           -78.843851693631     0.3322E-08     0.4263E-13
    12           -78.843851693631     0.1197E-08     0.1421E-13
    13           -78.843851693631     0.4264E-09     0.2842E-13
    14           -78.843851693631     0.1280E-09     0.1421E-13
    15           -78.843851693631     0.1479E-10     0.1421E-13
  ---------------------------------------------------------------
  Convergence criterion met in 15 iterations!

  - Summary of RHF wavefunction energetics (a.u.):

     HOMO-LUMO gap:                  0.645629080236
     Nuclear repulsion energy:      12.116100574587
     Electronic energy:            -90.959952268218
     Total energy:                 -78.843851693631

  - Molecular orbital energies

  -----------------------------------------------------------------------------------
   1 -20.574269195128   9   0.704416610872  17   1.682695299885  25   3.175416260672
   2  -1.277667044958  10   0.746260122921  18   1.804186820060  26   3.209661156325
   3  -0.898849406810  11   1.155862024397  19   1.902641648752  27   3.328173215213
   4  -0.629870222684  12   1.170770887084  20   2.148883457177  28   3.721936473482
   5  -0.541641772841  13   1.267961746557  21   2.200395756979  29   3.985492632598
   6  -0.485872762812  14   1.449847537230  22   2.540321860021
   7   0.159756317424  15   1.463234913441  23   2.541517310547
   8   0.229311906285  16   1.474444394533  24   2.559338707350
  -----------------------------------------------------------------------------------

  - Timings for the RHF ground state calculation

     Total wall time (sec):              0.41400
     Total cpu time (sec):               0.69818


  :: CCSD wavefunction
  =======================

     Bath orbital(s):         False
     Core-valence separation: False

   - Number of orbitals:

     Occupied orbitals:    6
     Virtual orbitals:     23
     Molecular orbitals:   29
     Atomic orbitals:      29

   - Number of ground state amplitudes:

     Single excitation amplitudes:  138
     Double excitation amplitudes:  9591


  :: Time dependent coupled cluster engine
  ===========================================

  Calculates the time dependent CC wavefunction

  This is a CCSD time dependent calculation.
  The following tasks will be performed:

     1) Preparation of MO basis and integrals
     2) Calculation of the ground state (diis algorithm)
     3) Calculation of the multipliers (davidson algorithm)
     4) Propagation from the ground state


  :: Time dependent coupled cluster engine
  ===========================================

  Calculates the time dependent CC wavefunction

  This is a CCSD time dependent calculation.
  The following tasks will be performed:

     1) Preparation of MO basis and integrals
     2) Calculation of the ground state (diis algorithm)
     3) Calculation of the multipliers (davidson algorithm)
     4) Propagation from the ground state


  1) Preparation of MO basis and integrals

  - Settings for integral handling:

     Cholesky vectors in memory: True
     ERI matrix in memory:       True


  2) Calculation of the ground state (diis algorithm)

   - DIIS coupled cluster ground state solver
  ----------------------------------------------

  A DIIS CC ground state amplitude equations solver. It uses an extrapolation 
  of previous quasi-Newton perturbation theory estimates of the next amplitudes. 
  See Helgaker et al., Molecular Electronic Structure Theory, Chapter 
  13.

  - DIIS CC ground state solver settings:

     Omega threshold:           0.10E-09
     Energy threshold:          0.10E-09

     DIIS dimension:                   8
     Max number of iterations:       100

     Storage: disk

  Iteration    Energy (a.u.)        |omega|       Delta E (a.u.)
  ---------------------------------------------------------------
    1           -79.084241931609     0.9391E-01     0.7908E+02
    2           -79.092586666608     0.2720E-01     0.8345E-02
    3           -79.099408028306     0.7507E-02     0.6821E-02
    4           -79.100345871309     0.2095E-02     0.9378E-03
    5           -79.100371860301     0.5154E-03     0.2599E-04
    6           -79.100393801016     0.2313E-03     0.2194E-04
    7           -79.100385611260     0.4933E-04     0.8190E-05
    8           -79.100384217524     0.1180E-04     0.1394E-05
    9           -79.100383621795     0.4135E-05     0.5957E-06
   10           -79.100383427012     0.1779E-05     0.1948E-06
   11           -79.100383466393     0.6705E-06     0.3938E-07
   12           -79.100383474630     0.2989E-06     0.8237E-08
   13           -79.100383487352     0.1028E-06     0.1272E-07
   14           -79.100383481865     0.3056E-07     0.5487E-08
   15           -79.100383481092     0.6508E-08     0.7730E-09
   16           -79.100383481303     0.2112E-08     0.2109E-09
   17           -79.100383481484     0.6588E-09     0.1819E-09
   18           -79.100383481546     0.1594E-09     0.6158E-10
   19           -79.100383481554     0.5326E-10     0.7915E-11
  ---------------------------------------------------------------
  Convergence criterion met in 19 iterations!

  - Ground state summary:

     Final ground state energy (a.u.):   -79.100383481554

     Correlation energy (a.u.):           -0.256531787923

     Largest single amplitudes:
     -----------------------------------
        a       i         t(a,i)
     -----------------------------------
        1      5       -0.014740597486
       14      4        0.009546856216
        7      4       -0.008284826477
       15      5        0.006124828872
        4      5       -0.005606072685
        6      2       -0.005476844297
        2      4       -0.005318591723
       13      5       -0.005269818340
        5      6        0.004933006894
       11      6       -0.003454309400
     ------------------------------------

     Largest double amplitudes:
     --------------------------------------------------
        a      i       b      j         t(ai,bj)
     --------------------------------------------------
        2      4       2      4       -0.047351708919
        5      6       5      6       -0.046240574399
        9      3       9      3       -0.041367012251
        3      4       3      4       -0.036659067518
        6      5       6      5       -0.034554012169
        1      5       1      5       -0.034177347752
       16      3      16      3       -0.032108235347
       17      3      17      3       -0.032052553602
       18      3      18      3       -0.031351828683
        2      4       3      4       -0.029701270697
     --------------------------------------------------

     T1 diagnostic (|T1|/sqrt(N_e)): 0.007226152104

  - Finished solving the CCSD ground state equations

     Total wall time (sec):              0.30900
     Total cpu time (sec):               0.90462


  3) Calculation of the multipliers (davidson algorithm)

   - Davidson coupled cluster multipliers solver
  -------------------------------------------------

  A Davidson solver that solves the multiplier equation: t-bar^T A = -η. 
  This linear equation is solved in a reduced space. A description of 
  the algorithm can be found in E. R. Davidson, J. Comput. Phys. 17, 87 
  (1975).

  - Davidson CC multipliers solver settings:

     Residual threshold:        0.10E-09
     Max number of iterations:       100

     Reduced space basis and transforms are stored on disk.

  Iteration     Residual norm
  ---------------------------
    1             0.2719E+00
    2             0.5697E-01
    3             0.1561E-01
    4             0.4442E-02
    5             0.1264E-02
    6             0.4349E-03
    7             0.1198E-03
    8             0.3377E-04
    9             0.1189E-04
   10             0.3856E-05
   11             0.1803E-05
   12             0.7067E-06
   13             0.2080E-06
   14             0.4495E-07
   15             0.1361E-07
   16             0.2687E-08
   17             0.6260E-09
   18             0.1919E-09
   19             0.6257E-10
  ---------------------------

  Convergence criterion met in 19 iterations!

  - Davidson CC multipliers solver summary:

     Largest single amplitudes:
     -----------------------------------
        a       i         t(a,i)
     -----------------------------------
        1      5       -0.022790118886
       14      4        0.015907507087
        7      4       -0.014297181942
        4      5       -0.011712306715
       15      5        0.010007216960
        6      2       -0.009083547624
       13      5       -0.008770531164
        2      4       -0.006954460329
        5      6        0.006820250255
        3      4       -0.006765159549
     ------------------------------------

     Largest double amplitudes:
     --------------------------------------------------
        a      i       b      j         t(ai,bj)
     --------------------------------------------------
        5      6       5      6       -0.092500754786
        2      4       2      4       -0.092085328210
        6      5       5      6        0.089666625591
        2      4       5      6        0.083792278099
        9      3       9      3       -0.082167759494
        2      4       6      5       -0.077164163662
        2      4       1      5       -0.076342716083
        7      4       5      6       -0.071424572151
        3      4       3      4       -0.071282985174
        6      5       6      5       -0.068075967748
     --------------------------------------------------

  - Finished solving the CCSD multipliers equations

     Total wall time (sec):               0.23300
     Total cpu time (sec):                0.37056


  4) Propagation from the ground state

   - Euler coupled cluster propagation solver
  ----------------------------------------------

  A solver that propagates a coupled cluster wavefunction from the ground 
  state using the euler method.

  - Propagation settings:

     Initial time:     0.0000 au
     Final time:       0.1000 au
     Time step:        0.0200 au
  Properties written at time:     0.0000 au
  Properties written at time:     0.0200 au
  Properties written at time:     0.0400 au
  Properties written at time:     0.0600 au
  Properties written at time:     0.0800 au
  Properties written at time:     0.1000 au

  Finished propagating for     0.1000 au

  - Euler coupled cluster propagation solver summary

     Energy after propagation [au]:
     ------------------------------------------
         Real part         Imaginary part
     ------------------------------------------
            43.8446278274      0.0000419655
     ------------------------------------------

     Dipole moment after propagation [au]:
     ---------------------------------------------
            Real part         Imaginary part
     ---------------------------------------------
         x     -0.0002583188      0.0000000726
         y      0.7734981971      0.0000054937
         z      0.0103288542     -0.0000419350
     ------------------------------------------

  - Timings for the CCSD time dependent calculation

     Total wall time (sec):              1.30400
     Total cpu time (sec):               3.09588

  eT terminated successfully!
