


                     eT - an electronic structure program

  ------------------------------------------------------------------------
   Author list in alphabetical order:
  ------------------------------------------------------------------------
   J. H. Andersen, A. Balbi, S. Coriani, S. D. Folkestad, T. Giovannini, 
   L. Goletto, T. S. Haugland, A. Hutcheson, I-M. Høyvik, E. F. Kjønstad, 
   H. Koch, T. Moitra, R. H. Myhre, A. C. Paul, M. Scavino, A. Skeidsvoll, 
   Å. H. Tveten
  ------------------------------------------------------------------------


  :: Input file
  ================

     Note: geometry section is excluded from this print

     system
        name: H2O He
        charge: 0
     end system

     do
        response
     end do

     memory
        available: 8
     end memory

     solver cholesky
        threshold: 1.0d-12
     end solver cholesky

     solver scf
        algorithm:          scf-diis
        energy threshold:   1.0d-11
        gradient threshold: 1.0d-11
     end solver scf

     method
        hf
        ccsd
     end method

     cc response
        eom
        dipole length
        transition moments
     end cc response

     solver cc gs
        omega threshold:  1.0d-11
        energy threshold: 1.0d-11
     end solver cc gs

     solver cc multipliers
        threshold: 1.0d-11
        algorithm: diis
     end solver cc multipliers

     solver cc es
        algorithm:          diis
        singlet states:     1
        residual threshold: 1.0d-11
        energy threshold:   1.0d-11
     end solver cc es


  Running on 2 OMP thread(s)
  Memory available for calculation: 8.000000 GB


  :: Molecular system specifications
  =====================================

     Name:             h2o he
     Charge:           0
     Multiplicity:     1
     Coordinate units: angstrom

     Pure basis functions:         29
     Cartesian basis functions:    30
     Primitive basis functions:    56

     Nuclear repulsion energy (a.u.):             12.116100574587
     Bohr/angstrom value (CODATA 2010):            0.529177210920

     ==============================================================================
                                     Geometry (angstrom)
     ==============================================================================
        Atom           X                  Y                  Z         # in input
     ==============================================================================
        Basis: cc-pvdz
        1 H      0.866810000000     0.601440000000     5.000000000000        1
        2 H     -0.866810000000     0.601440000000     5.000000000000        2
        3 O      0.000000000000    -0.075790000000     5.000000000000        3
        4 He     0.100000000000    -0.020000000000     7.530000000000        4
     ==============================================================================

     ==============================================================================
                                     Geometry (a.u.)
     ==============================================================================
        Atom           X                  Y                  Z         # in input
     ==============================================================================
        Basis: cc-pvdz
        1 H      1.638033502034     1.136556880358     9.448630622825        1
        2 H     -1.638033502034     1.136556880358     9.448630622825        2
        3 O      0.000000000000    -0.143222342981     9.448630622825        3
        4 He     0.188972612457    -0.037794522491    14.229637717975        4
     ==============================================================================


  :: RHF wavefunction
  ======================

  - Cholesky decomposition of AO overlap to get linearly independent orbitals:

  - Orbital details:

     Number of occupied orbitals:         6
     Number of virtual orbitals:         23
     Number of molecular orbitals:       29
     Number of atomic orbitals:          29


  :: Hartree-Fock engine
  =========================

  Drives the calculation of the Hartree-Fock state.

  This is a RHF ground state calculation.
  The following tasks will be performed:

     1) Generate initial SAD density
     2) Calculation of reference state (SCF-DIIS algorithm)


  1) Generate initial SAD density


  2) Calculation of reference state (SCF-DIIS algorithm)

   - Self-consistent field DIIS Hartree-Fock solver
  ----------------------------------------------------

  A DIIS-accelerated Roothan-Hall self-consistent field solver. A least-square 
  DIIS fit is performed on the previous Fock matrices and associated gradients. 
  Following the Roothan-Hall update of the density, the DIIS-fitted Fock 
  matrix is used to get the next orbital coefficients.

  - Hartree-Fock solver settings:

     DIIS dimension:                         8
     Cumulative Fock threshold:       0.10E+01

     Energy threshold:              0.1000E-10
     Gradient threshold:            0.1000E-10

     Coulomb screening threshold:   0.1000E-16
     Exchange screening threshold:  0.1000E-14
     Fock precision:                0.1000E-33
     Integral cutoff:               0.1000E-16

  - Setting initial AO density to SAD

     Energy of initial guess:               -78.492022836321
     Number of electrons in guess:           12.000000000000

  Iteration       Energy (a.u.)      Max(grad.)    Delta E (a.u.)
  ---------------------------------------------------------------
     1           -78.796606592593     0.9053E-01     0.7880E+02
     2           -78.828675852657     0.7128E-01     0.3207E-01
     3           -78.843428154462     0.8290E-02     0.1475E-01
     4           -78.843809541675     0.2414E-02     0.3814E-03
     5           -78.843850846800     0.3301E-03     0.4131E-04
     6           -78.843851669326     0.5527E-04     0.8225E-06
     7           -78.843851692851     0.5865E-05     0.2353E-07
     8           -78.843851693557     0.2356E-05     0.7053E-09
     9           -78.843851693630     0.2071E-06     0.7387E-10
    10           -78.843851693631     0.1594E-07     0.3695E-12
    11           -78.843851693631     0.3322E-08     0.4263E-13
    12           -78.843851693631     0.1197E-08     0.0000E+00
    13           -78.843851693631     0.4264E-09     0.1137E-12
    14           -78.843851693631     0.1280E-09     0.2842E-13
    15           -78.843851693631     0.1479E-10     0.5684E-13
    16           -78.843851693631     0.2908E-11     0.2842E-13
  ---------------------------------------------------------------
  Convergence criterion met in 16 iterations!

  - Summary of RHF wavefunction energetics (a.u.):

     HOMO-LUMO gap:                  0.645629080248
     Nuclear repulsion energy:      12.116100574587
     Electronic energy:            -90.959952268218
     Total energy:                 -78.843851693631

  - Molecular orbital energies

  -----------------------------------------------------------------------------------
   1 -20.574269195145   9   0.704416610867  17   1.682695299877  25   3.175416260660
   2  -1.277667044968  10   0.746260122914  18   1.804186820052  26   3.209661156313
   3  -0.898849406810  11   1.155862024383  19   1.902641648742  27   3.328173215200
   4  -0.629870222690  12   1.170770887076  20   2.148883457168  28   3.721936473470
   5  -0.541641772852  13   1.267961746552  21   2.200395756969  29   3.985492632586
   6  -0.485872762832  14   1.449847537220  22   2.540321860021
   7   0.159756317416  15   1.463234913438  23   2.541517310547
   8   0.229311906283  16   1.474444394527  24   2.559338707350
  -----------------------------------------------------------------------------------

  - Timings for the RHF ground state calculation

     Total wall time (sec):              1.10286
     Total cpu time (sec):               2.13840


  :: CCSD wavefunction
  =======================

     Bath orbital(s):         False
     Core-valence separation: False

   - Number of orbitals:

     Occupied orbitals:    6
     Virtual orbitals:     23
     Molecular orbitals:   29
     Atomic orbitals:      29

   - Number of ground state amplitudes:

     Single excitation amplitudes:  138
     Double excitation amplitudes:  9591


  :: Coupled cluster response engine
  =====================================

  Calculates dipole transition moments and oscillator strengths between 

  the ground state and the excited states.

  This is a CCSD response calculation.
  The following tasks will be performed:

     1) Cholesky decomposition of the electron repulsion integrals
     2) Preparation of MO basis and integrals
     3) Calculation of the ground state (diis algorithm)
     4) Calculation of the multipliers (diis algorithm)
     5) Calculation of the excited state (diis algorithm)
     6) Calculation of the transition moments (EOM)


  1) Cholesky decomposition of the electron repulsion integrals

   - Cholesky decomposition of electronic repulsion integrals solver
  ---------------------------------------------------------------------

  Performs a Cholesky decomposition of the two-electron electronic repulsion 
  integrals in the atomic orbital basis,

  (ab|cd) = sum_J L_ab^J L_cd^J.

  Once the Cholesky basis has been determined, the vectors L^J are constructed 
  and stored to disk. These may either be used directly, or be transformed 
  to the MO basis for use in post-HF calculations. For more information, 
  see S. D. Folkestad, E. F. Kjønstad and H. Koch, JCP, 150(19), (2019)

  - Cholesky decomposition settings:

     Target threshold is:   0.10E-11
     Span factor:           0.10E-01
     Max qual:                  1000

  - Cholesky decomposition system details:

     Total number of AOs:                    29
     Total number of shell pairs:           120
     Total number of AO pairs:              435

     Significant shell pairs:               118
     Significant AO pairs:                  431

     Construct shell pairs:                 120
     Construct AO pairs:                    435

  Iter.  #Sign. ao pairs / shell pairs   Max diagonal    #Qualified    #Cholesky    Cholesky array size
  -------------------------------------------------------------------------------------------------------
     1               406 /     108       0.47383E+01         147             42             17052
     2               319 /      93       0.47165E-01         234            111             35409
     3               250 /      76       0.46944E-03         178            183             45750
     4               187 /      55       0.38270E-05         145            265             49555
     5                87 /      25       0.38106E-07          78            324             28188
     6                21 /       3       0.37202E-09          43            349              7329
     7                 0 /       0       0.36652E-11           7            354                 0
  -------------------------------------------------------------------------------------------------------

  - Summary of Cholesky decomposition of electronic repulsion integrals:

     Final number of Cholesky vectors: 354

 - Testing the Cholesky decomposition decomposition electronic repulsion integrals:

     Maximal difference between approximate and actual diagonal:              0.7161E-12
     Minimal element of difference between approximate and actual diagonal:  -0.1238E-14

  - Settings for integral handling:

     Cholesky vectors in memory: True
     ERI matrix in memory:       True

  - Finished decomposing the ERIs.

     Total wall time (sec):              0.40073
     Total cpu time (sec):               0.78935


  2) Preparation of MO basis and integrals


  3) Calculation of the ground state (diis algorithm)

   - DIIS coupled cluster ground state solver
  ----------------------------------------------

  A DIIS CC ground state amplitude equations solver. It uses an extrapolation 
  of previous quasi-Newton perturbation theory estimates of the next amplitudes. 
  See Helgaker et al., Molecular Electronic Structure Theory, Chapter 
  13.

  - DIIS CC ground state solver settings:

     Omega threshold:           0.10E-10
     Energy threshold:          0.10E-10

     DIIS dimension:                   8
     Max number of iterations:       100

     Storage: disk

  Iteration    Energy (a.u.)        |omega|       Delta E (a.u.)
  ---------------------------------------------------------------
    1           -79.084241931608     0.9391E-01     0.7908E+02
    2           -79.092586666607     0.2720E-01     0.8345E-02
    3           -79.099408028306     0.7507E-02     0.6821E-02
    4           -79.100345871309     0.2095E-02     0.9378E-03
    5           -79.100371860301     0.5154E-03     0.2599E-04
    6           -79.100393801016     0.2313E-03     0.2194E-04
    7           -79.100385611260     0.4933E-04     0.8190E-05
    8           -79.100384217524     0.1180E-04     0.1394E-05
    9           -79.100383621794     0.4135E-05     0.5957E-06
   10           -79.100383427012     0.1779E-05     0.1948E-06
   11           -79.100383466393     0.6705E-06     0.3938E-07
   12           -79.100383474630     0.2989E-06     0.8237E-08
   13           -79.100383487352     0.1028E-06     0.1272E-07
   14           -79.100383481865     0.3056E-07     0.5487E-08
   15           -79.100383481092     0.6508E-08     0.7730E-09
   16           -79.100383481303     0.2112E-08     0.2109E-09
   17           -79.100383481484     0.6588E-09     0.1819E-09
   18           -79.100383481546     0.1594E-09     0.6158E-10
   19           -79.100383481554     0.5326E-10     0.7901E-11
   20           -79.100383481555     0.2008E-10     0.1208E-11
   21           -79.100383481556     0.7516E-11     0.6679E-12
  ---------------------------------------------------------------
  Convergence criterion met in 21 iterations!

  - Ground state summary:

     Final ground state energy (a.u.):   -79.100383481556

     Correlation energy (a.u.):           -0.256531787925

     Largest single amplitudes:
     -----------------------------------
        a       i         t(a,i)
     -----------------------------------
        1      5        0.014740597524
       14      4       -0.009546856220
        7      4        0.008284826483
       15      5       -0.006124828873
        4      5        0.005606072698
        6      2        0.005476844297
        2      4        0.005318591701
       13      5        0.005269818337
        5      6        0.004933006906
       11      6       -0.003454309399
     ------------------------------------

     Largest double amplitudes:
     --------------------------------------------------
        a      i       b      j         t(ai,bj)
     --------------------------------------------------
        2      4       2      4       -0.047351708919
        5      6       5      6       -0.046240574404
        9      3       9      3       -0.041367012248
        3      4       3      4       -0.036659067517
        6      5       6      5       -0.034554012170
        1      5       1      5       -0.034177347751
       16      3      16      3       -0.032108235347
       17      3      17      3       -0.032052553603
       18      3      18      3       -0.031351828684
        2      4       3      4       -0.029701270698
     --------------------------------------------------

     T1 diagnostic (|T1|/sqrt(N_e)): 0.007226152112

  - Finished solving the CCSD ground state equations

     Total wall time (sec):              0.48839
     Total cpu time (sec):               0.96463


  4) Calculation of the multipliers (diis algorithm)

   - DIIS coupled cluster multipliers solver
  ---------------------------------------------

  A DIIS CC multiplier equations solver. It combines a quasi-Newton perturbation 
  theory estimate of the next multipliers, using least square fitting 
  to find an an optimal combination of previous estimates such that the 
  update is minimized.

  See Helgaker et al., Molecular Electronic Structure Theory, Chapter 
  13, for the more details on this algorithm.

  - DIIS CC multipliers solver settings:

     Residual threshold:        0.10E-10

     DIIS dimension:                   8
     Max number of iterations:       100

  Iteration    Norm residual
  ----------------------------
    1          0.2076E+01
    2          0.2758E+00
    3          0.7390E-01
    4          0.1823E-01
    5          0.5144E-02
    6          0.1276E-02
    7          0.4964E-03
    8          0.1188E-03
    9          0.3340E-04
   10          0.1139E-04
   11          0.4270E-05
   12          0.1506E-05
   13          0.7168E-06
   14          0.2642E-06
   15          0.7915E-07
   16          0.2040E-07
   17          0.5933E-08
   18          0.2025E-08
   19          0.5601E-09
   20          0.2374E-09
   21          0.7979E-10
   22          0.2750E-10
   23          0.1089E-10
   24          0.5256E-11
  ----------------------------
  Convergence criterion met in 24 iterations!

  - DIIS CC multipliers solver summary:

     Largest single amplitudes:
     -----------------------------------
        a       i         tbar(a,i)
     -----------------------------------
        1      5        0.022790118897
       14      4       -0.015907507091
        7      4        0.014297181947
        4      5        0.011712306721
       15      5       -0.010007216961
        6      2        0.009083547622
       13      5        0.008770531160
        2      4        0.006954460294
        5      6        0.006820250278
        3      4        0.006765159553
     ------------------------------------

     Largest double amplitudes:
     --------------------------------------------------
        a      i       b      j         tbar(ai,bj)
     --------------------------------------------------
        5      6       5      6       -0.092500754790
        2      4       2      4       -0.092085328213
        6      5       5      6        0.089666625590
        2      4       5      6       -0.083792278098
        9      3       9      3       -0.082167759498
        2      4       6      5        0.077164163662
        2      4       1      5       -0.076342716082
        7      4       5      6        0.071424572152
        3      4       3      4       -0.071282985174
        6      5       6      5       -0.068075967747
     --------------------------------------------------

  - Finished solving the ccsd multipliers equations

     Total wall time (sec):              0.26235
     Total cpu time (sec):               0.51543


  5) Calculation of the excited state (diis algorithm)
     Calculating right vectors

   - DIIS coupled cluster excited state solver
  -----------------------------------------------

  A DIIS solver that solves for the lowest eigenvalues and  the right 
  eigenvectors of the Jacobian matrix, A. The eigenvalue  problem is solved 
  by DIIS extrapolation of residuals for each  eigenvector until the convergence 
  criteria are met.

  More on the DIIS algorithm can be found in P. Pulay, Chemical Physics 
  Letters, 73(2), 393-398 (1980).

  - Settings for coupled cluster excited state solver (DIIS):

     Calculation type:    valence
     Excitation vectors:  right

     Energy threshold:                0.10E-10
     Residual threshold:              0.10E-10

     Number of singlet states:               1
     Max number of iterations:             100

     DIIS dimension:                        20

  Iteration:                  1

   Root     Eigenvalue (Re)     Residual norm
  -----------------------------------------------
     1      0.378034040947       0.4419E+00
  -----------------------------------------------

  Iteration:                  2

   Root     Eigenvalue (Re)     Residual norm
  -----------------------------------------------
     1      0.251428547816       0.9263E-01
  -----------------------------------------------

  Iteration:                  3

   Root     Eigenvalue (Re)     Residual norm
  -----------------------------------------------
     1      0.247301322193       0.3009E-01
  -----------------------------------------------

  Iteration:                  4

   Root     Eigenvalue (Re)     Residual norm
  -----------------------------------------------
     1      0.246777463908       0.1137E-01
  -----------------------------------------------

  Iteration:                  5

   Root     Eigenvalue (Re)     Residual norm
  -----------------------------------------------
     1      0.247175865180       0.2534E-02
  -----------------------------------------------

  Iteration:                  6

   Root     Eigenvalue (Re)     Residual norm
  -----------------------------------------------
     1      0.247200357320       0.7010E-03
  -----------------------------------------------

  Iteration:                  7

   Root     Eigenvalue (Re)     Residual norm
  -----------------------------------------------
     1      0.247198291785       0.2512E-03
  -----------------------------------------------

  Iteration:                  8

   Root     Eigenvalue (Re)     Residual norm
  -----------------------------------------------
     1      0.247194090877       0.1432E-03
  -----------------------------------------------

  Iteration:                  9

   Root     Eigenvalue (Re)     Residual norm
  -----------------------------------------------
     1      0.247193986912       0.9480E-04
  -----------------------------------------------

  Iteration:                 10

   Root     Eigenvalue (Re)     Residual norm
  -----------------------------------------------
     1      0.247194508234       0.4727E-04
  -----------------------------------------------

  Iteration:                 11

   Root     Eigenvalue (Re)     Residual norm
  -----------------------------------------------
     1      0.247194246613       0.1526E-04
  -----------------------------------------------

  Iteration:                 12

   Root     Eigenvalue (Re)     Residual norm
  -----------------------------------------------
     1      0.247194258909       0.6243E-05
  -----------------------------------------------

  Iteration:                 13

   Root     Eigenvalue (Re)     Residual norm
  -----------------------------------------------
     1      0.247194267475       0.4482E-05
  -----------------------------------------------

  Iteration:                 14

   Root     Eigenvalue (Re)     Residual norm
  -----------------------------------------------
     1      0.247194234029       0.3189E-05
  -----------------------------------------------

  Iteration:                 15

   Root     Eigenvalue (Re)     Residual norm
  -----------------------------------------------
     1      0.247194248666       0.1350E-05
  -----------------------------------------------

  Iteration:                 16

   Root     Eigenvalue (Re)     Residual norm
  -----------------------------------------------
     1      0.247194254854       0.3863E-06
  -----------------------------------------------

  Iteration:                 17

   Root     Eigenvalue (Re)     Residual norm
  -----------------------------------------------
     1      0.247194255197       0.1179E-06
  -----------------------------------------------

  Iteration:                 18

   Root     Eigenvalue (Re)     Residual norm
  -----------------------------------------------
     1      0.247194255521       0.4033E-07
  -----------------------------------------------

  Iteration:                 19

   Root     Eigenvalue (Re)     Residual norm
  -----------------------------------------------
     1      0.247194255373       0.1516E-07
  -----------------------------------------------

  Iteration:                 20

   Root     Eigenvalue (Re)     Residual norm
  -----------------------------------------------
     1      0.247194255472       0.5609E-08
  -----------------------------------------------

  Iteration:                 21

   Root     Eigenvalue (Re)     Residual norm
  -----------------------------------------------
     1      0.247194255577       0.2084E-08
  -----------------------------------------------

  Iteration:                 22

   Root     Eigenvalue (Re)     Residual norm
  -----------------------------------------------
     1      0.247194255587       0.8646E-09
  -----------------------------------------------

  Iteration:                 23

   Root     Eigenvalue (Re)     Residual norm
  -----------------------------------------------
     1      0.247194255579       0.2889E-09
  -----------------------------------------------

  Iteration:                 24

   Root     Eigenvalue (Re)     Residual norm
  -----------------------------------------------
     1      0.247194255573       0.1025E-09
  -----------------------------------------------

  Iteration:                 25

   Root     Eigenvalue (Re)     Residual norm
  -----------------------------------------------
     1      0.247194255572       0.4812E-10
  -----------------------------------------------

  Iteration:                 26

   Root     Eigenvalue (Re)     Residual norm
  -----------------------------------------------
     1      0.247194255572       0.2584E-10
  -----------------------------------------------

  Iteration:                 27

   Root     Eigenvalue (Re)     Residual norm
  -----------------------------------------------
     1      0.247194255572       0.8560E-11
  -----------------------------------------------
  Convergence criterion met in 27 iterations!

  - Resorting roots according to excitation energy.

  - Stored converged states to file.

  - Excitation vector amplitudes:

     Electronic state nr. 1

     Energy (Hartree):                  0.247194255572
     Fraction singles (|R1|/|R|):       0.973397678083

     Largest single amplitudes:
     -----------------------------------
        a       i         R(a,i)
     -----------------------------------
        1      6        0.964249868485
        4      6        0.121847295825
        6      6       -0.036249387510
       13      6       -0.030061485952
        1      3       -0.011074241439
       22      6        0.008603353606
       19      5       -0.007863834135
        1      5        0.007857920534
       10      6        0.007675079118
        9      6       -0.007427820492
     ------------------------------------

     Largest double amplitudes:
     --------------------------------------------------
        a      i       b      j         R(ai,bj)
     --------------------------------------------------
        2      4       1      6       -0.100746791318
        1      5       1      6       -0.085612058156
        1      6       5      6       -0.066933008110
        1      2       1      6       -0.063267573163
        1      4       2      6       -0.061512599150
        3      4       1      6       -0.054854109240
        6      5       1      6        0.046260935197
        4      5       1      6       -0.038260256938
        7      4       1      6        0.032958804244
        4      4       2      6       -0.032734134559
     --------------------------------------------------

     - Electronic excitation energies:

                                      Excitation energy
                          ------------------------------------------
      State                (Hartree)             (eV)
     ---------------------------------------------------------------
        1                  0.247194255572        6.726498310302
     ---------------------------------------------------------------
     eV/Hartree (CODATA 2014): 27.21138602

  - Finished solving the CCSD excited state equations (right)

     Total wall time (sec):              0.23402
     Total cpu time (sec):               0.45770


  5) Calculation of the excited state (diis algorithm)
     Calculating left vectors

   - DIIS coupled cluster excited state solver
  -----------------------------------------------

  A DIIS solver that solves for the lowest eigenvalues and  the right 
  eigenvectors of the Jacobian matrix, A. The eigenvalue  problem is solved 
  by DIIS extrapolation of residuals for each  eigenvector until the convergence 
  criteria are met.

  More on the DIIS algorithm can be found in P. Pulay, Chemical Physics 
  Letters, 73(2), 393-398 (1980).

  - Settings for coupled cluster excited state solver (DIIS):

     Calculation type:    valence
     Excitation vectors:  left

     Energy threshold:                0.10E-10
     Residual threshold:              0.10E-10

     Number of singlet states:               1
     Max number of iterations:             100

     DIIS dimension:                        20

  Iteration:                  1

   Root     Eigenvalue (Re)     Residual norm
  -----------------------------------------------
     1      0.378034040947       0.7654E+00
  -----------------------------------------------

  Iteration:                  2

   Root     Eigenvalue (Re)     Residual norm
  -----------------------------------------------
     1      0.257807949575       0.1252E+00
  -----------------------------------------------

  Iteration:                  3

   Root     Eigenvalue (Re)     Residual norm
  -----------------------------------------------
     1      0.250548372742       0.3951E-01
  -----------------------------------------------

  Iteration:                  4

   Root     Eigenvalue (Re)     Residual norm
  -----------------------------------------------
     1      0.249517824681       0.1886E-01
  -----------------------------------------------

  Iteration:                  5

   Root     Eigenvalue (Re)     Residual norm
  -----------------------------------------------
     1      0.247237478545       0.6159E-02
  -----------------------------------------------

  Iteration:                  6

   Root     Eigenvalue (Re)     Residual norm
  -----------------------------------------------
     1      0.247262908882       0.1545E-02
  -----------------------------------------------

  Iteration:                  7

   Root     Eigenvalue (Re)     Residual norm
  -----------------------------------------------
     1      0.247178448929       0.4971E-03
  -----------------------------------------------

  Iteration:                  8

   Root     Eigenvalue (Re)     Residual norm
  -----------------------------------------------
     1      0.247193500686       0.2032E-03
  -----------------------------------------------

  Iteration:                  9

   Root     Eigenvalue (Re)     Residual norm
  -----------------------------------------------
     1      0.247194256558       0.1348E-03
  -----------------------------------------------

  Iteration:                 10

   Root     Eigenvalue (Re)     Residual norm
  -----------------------------------------------
     1      0.247194750647       0.5598E-04
  -----------------------------------------------

  Iteration:                 11

   Root     Eigenvalue (Re)     Residual norm
  -----------------------------------------------
     1      0.247194536520       0.2048E-04
  -----------------------------------------------

  Iteration:                 12

   Root     Eigenvalue (Re)     Residual norm
  -----------------------------------------------
     1      0.247194323086       0.8396E-05
  -----------------------------------------------

  Iteration:                 13

   Root     Eigenvalue (Re)     Residual norm
  -----------------------------------------------
     1      0.247194242680       0.5820E-05
  -----------------------------------------------

  Iteration:                 14

   Root     Eigenvalue (Re)     Residual norm
  -----------------------------------------------
     1      0.247194238995       0.4339E-05
  -----------------------------------------------

  Iteration:                 15

   Root     Eigenvalue (Re)     Residual norm
  -----------------------------------------------
     1      0.247194252928       0.2164E-05
  -----------------------------------------------

  Iteration:                 16

   Root     Eigenvalue (Re)     Residual norm
  -----------------------------------------------
     1      0.247194255913       0.6245E-06
  -----------------------------------------------

  Iteration:                 17

   Root     Eigenvalue (Re)     Residual norm
  -----------------------------------------------
     1      0.247194255871       0.1829E-06
  -----------------------------------------------

  Iteration:                 18

   Root     Eigenvalue (Re)     Residual norm
  -----------------------------------------------
     1      0.247194256155       0.6146E-07
  -----------------------------------------------

  Iteration:                 19

   Root     Eigenvalue (Re)     Residual norm
  -----------------------------------------------
     1      0.247194256110       0.2079E-07
  -----------------------------------------------

  Iteration:                 20

   Root     Eigenvalue (Re)     Residual norm
  -----------------------------------------------
     1      0.247194255799       0.6922E-08
  -----------------------------------------------

  Iteration:                 21

   Root     Eigenvalue (Re)     Residual norm
  -----------------------------------------------
     1      0.247194255579       0.2545E-08
  -----------------------------------------------

  Iteration:                 22

   Root     Eigenvalue (Re)     Residual norm
  -----------------------------------------------
     1      0.247194255541       0.1142E-08
  -----------------------------------------------

  Iteration:                 23

   Root     Eigenvalue (Re)     Residual norm
  -----------------------------------------------
     1      0.247194255555       0.4874E-09
  -----------------------------------------------

  Iteration:                 24

   Root     Eigenvalue (Re)     Residual norm
  -----------------------------------------------
     1      0.247194255567       0.1885E-09
  -----------------------------------------------

  Iteration:                 25

   Root     Eigenvalue (Re)     Residual norm
  -----------------------------------------------
     1      0.247194255573       0.7672E-10
  -----------------------------------------------

  Iteration:                 26

   Root     Eigenvalue (Re)     Residual norm
  -----------------------------------------------
     1      0.247194255572       0.4094E-10
  -----------------------------------------------

  Iteration:                 27

   Root     Eigenvalue (Re)     Residual norm
  -----------------------------------------------
     1      0.247194255573       0.1515E-10
  -----------------------------------------------

  Iteration:                 28

   Root     Eigenvalue (Re)     Residual norm
  -----------------------------------------------
     1      0.247194255572       0.4515E-11
  -----------------------------------------------
  Convergence criterion met in 28 iterations!

  - Resorting roots according to excitation energy.

  - Stored converged states to file.

  - Excitation vector amplitudes:

     Electronic state nr. 1

     Energy (Hartree):                  0.247194255572
     Fraction singles (|L1|/|L|):       0.942536368057

     Largest single amplitudes:
     -----------------------------------
        a       i         L(a,i)
     -----------------------------------
        1      6        0.934321066335
        4      6        0.114002382605
        6      6       -0.032814400825
       13      6       -0.027947643733
        1      3       -0.010930020792
        1      5        0.007879253273
       22      6        0.007408446952
       10      6        0.006944886702
       19      5       -0.006882560536
        9      6       -0.006676723237
     ------------------------------------

     Largest double amplitudes:
     --------------------------------------------------
        a      i       b      j         L(ai,bj)
     --------------------------------------------------
        2      4       1      6       -0.171079645375
        6      5       1      6        0.100212340581
        3      4       1      6       -0.099658455493
        1      5       1      6       -0.089486547885
        4      5       1      6       -0.079266906023
        1      6       5      6       -0.071510175858
        7      4       1      6        0.068318341917
        1      2       1      6       -0.065029437021
        4      4       2      6       -0.055727685952
        3      5       2      6       -0.042559408816
     --------------------------------------------------

     - Electronic excitation energies:

                                      Excitation energy
                          ------------------------------------------
      State                (Hartree)             (eV)
     ---------------------------------------------------------------
        1                  0.247194255572        6.726498310296
     ---------------------------------------------------------------
     eV/Hartree (CODATA 2014): 27.21138602

  - Finished solving the CCSD excited state equations (left)

     Total wall time (sec):              0.28395
     Total cpu time (sec):               0.56535


  6) Calculation of the transition moments (EOM)

  :: EOM properties calculation

  - Summary of EOM properties calculation:

     State 1:
     ----------
     Calculation type:                             EOM
     Excitation energy [E_h]:           0.247194255572
     Excitation energy [eV]:            6.726498310302
     Hartree-to-eV (CODATA 2014):          27.21138602

                   Transition moments [a.u.]         Transition strength [a.u.]
     --------------------------------------------------------------------------
     Comp. q     < k |q| 0 >       < 0 |q| k >        < 0 |q| k > < k |q| 0 >
     --------------------------------------------------------------------------
     X           0.0004665158      0.0008903044            0.0000004153
     Y           0.0027022345      0.0052703758            0.0000142418
     Z          -0.2024326697     -0.3970439121            0.0803746591
     --------------------------------------------------------------------------
     Oscillator strength:      0.013247851457

  - Timings for the CCSD response calculation

     Total wall time (sec):              1.67269
     Total cpu time (sec):               3.29879

     Peak memory usage during the execution of eT: 16.307080 MB

  eT terminated successfully!
