


                     eT - an electronic structure program

  ------------------------------------------------------------------------
   Author list in alphabetical order:
  ------------------------------------------------------------------------
   J. H. Andersen, A. Balbi, S. Coriani, S. D. Folkestad, T. Giovannini, 
   L. Goletto, T. S. Haugland, A. Hutcheson, I-M. Høyvik, E. F. Kjønstad, 
   H. Koch, T. Moitra, R. H. Myhre, A. C. Paul, M. Scavino, A. Skeidsvoll, 
   Å. H. Tveten
  ------------------------------------------------------------------------


  :: Input file
  ================

     Note: geometry section is excluded from this print

     system
        name: H2O
        charge: 0
     end system

     method
        hf
        ccsd
     end method

     memory
        available: 8
     end memory

     solver cholesky
        threshold: 1.0d-12
     end solver cholesky

     solver scf
        algorithm:          scf-diis
        energy threshold:   1.0d-10
        gradient threshold: 1.0d-10
     end solver scf

     solver cc gs
        omega threshold:  1.0d-10
        energy threshold: 1.0d-10
     end solver cc gs

     solver cc multipliers
        threshold: 1.0d-10
     end solver cc multipliers

     molecular mechanics
        forcefield: fq
     end molecular mechanics

     do
        ground state
     end do


  Running on 2 OMP thread(s)
  Memory available for calculation: 8.000000 GB


  :: Molecular system specifications (QM)
  ==========================================

     Name:             h2o
     Charge:           0
     Multiplicity:     1
     Coordinate units: angstrom

     Pure basis functions:         24
     Cartesian basis functions:    25
     Primitive basis functions:    49

     Nuclear repulsion energy (a.u.):              9.307879526626
     Bohr/angstrom value (CODATA 2010):            0.529177210920

     ==============================================================================
                                     Geometry (angstrom)
     ==============================================================================
        Atom           X                  Y                  Z         # in input
     ==============================================================================
        Basis: cc-pvdz
        1 O      0.009319000000     1.133156000000     0.000000000000        1
        2 H      0.023452000000     0.185621000000     0.000000000000        2
        3 H      0.906315000000     1.422088000000     0.000000000000        3
     ==============================================================================

     ==============================================================================
                                     Geometry (a.u.)
     ==============================================================================
        Atom           X                  Y                  Z         # in input
     ==============================================================================
        Basis: cc-pvdz
        1 O      0.017610357755     2.141354496408     0.000000000000        1
        2 H      0.044317857073     0.350772852968     0.000000000000        2
        3 H      1.712687132585     2.687356845030     0.000000000000        3
     ==============================================================================


  :: Molecular system specifications (MM)
  ==========================================

     Force Field:  fq
     Algorithm  :  mat_inversion

     Number of MM atoms:                   3
     Number of MM molecules:               1

    ====================================================================
                        MM Geometry (Å) and Parameters
    ====================================================================
    Atom    Mol         X          Y          Z         Chi        Eta
    ====================================================================
      O       1    -0.042964  -1.404707  -0.000000   0.116859   0.584852
      H       1    -0.419020  -1.818953   0.760190   0.000000   0.625010
      H       1    -0.419020  -1.818953  -0.760190   0.000000   0.625010
    ====================================================================

   - Cholesky decomposition of electronic repulsion integrals solver
  ---------------------------------------------------------------------

  Performs a Cholesky decomposition of the two-electron electronic repulsion 
  integrals in the atomic orbital basis,

  (ab|cd) = sum_J L_ab^J L_cd^J.

  Once the Cholesky basis has been determined, the vectors L^J are constructed 
  and stored to disk. These may either be used directly, or be transformed 
  to the MO basis for use in post-HF calculations. For more information, 
  see S. D. Folkestad, E. F. Kjønstad and H. Koch, JCP, 150(19), (2019)

  - Cholesky decomposition settings:

     Target threshold is:   0.10E-11
     Span factor:           0.10E-01
     Max qual:                  1000

  - Cholesky decomposition system details:

     Total number of AOs:                    24
     Total number of shell pairs:            78
     Total number of AO pairs:              300

     Significant shell pairs:                78
     Significant AO pairs:                  300

     Construct shell pairs:                  78
     Construct AO pairs:                    300

  Iter.  #Sign. ao pairs / shell pairs   Max diagonal    #Qualified    #Cholesky    Cholesky array size
  -------------------------------------------------------------------------------------------------------
     1               285 /      71       0.47383E+01         150             29              8265
     2               220 /      60       0.46828E-01         242             99             21780
     3               141 /      47       0.46528E-03         158            157             22137
     4               105 /      33       0.45055E-05         122            226             23730
     5                12 /       8       0.45032E-07          55            271              3252
     6                 0 /       0       0.23634E-09           9            279                 0
  -------------------------------------------------------------------------------------------------------

  - Summary of Cholesky decomposition of electronic repulsion integrals:

     Final number of Cholesky vectors: 279

 - Testing the Cholesky decomposition decomposition electronic repulsion integrals:

     Maximal difference between approximate and actual diagonal:              0.1995E-12
     Minimal element of difference between approximate and actual diagonal:  -0.8882E-15

  - Finished decomposing the ERIs.

     Total wall time (sec):              0.08800
     Total cpu time (sec):               0.13009


  :: RHF wavefunction
  ======================

  This is a QM/MM calculation

     Polarizable Embedding: Fluctuating Charges (FQ) Force Field

     Each atom of the MM portion is endowed with a charge which value 
     can vary in agreement with the ElectronegativityEqualization Principle 
     (EEP), which states that at the equilibrium each atom has the same 
     electronegativity.

     The force field is defined in terms of electronegativity (Chi) and 
     chemical hardness (Eta), which are specified for each MM atom.

     The QM/MM electrostatic interaction energy is defined as:

        E^ele_QM/MM = sum_i q_i * V_i(P)

     where V_i(P) is the electrostatic potential due to the QMdensity 
     calculated at the position of the i-th charge q_i.The values of the 
     charges are obtained by solving a linearequation:

        Dq = -Chi - V(P)

     For further details, see:
     C. Cappelli. IJQC, 2016, 116, 1532-1542.

     CC calculation: zero-order approximation
     FQ charges only affect MOs and Fock


  - Cholesky decomposition of AO overlap to get linearly independent orbitals:

  - Orbital details:

     Number of occupied orbitals:         5
     Number of virtual orbitals:         19
     Number of molecular orbitals:       24
     Number of atomic orbitals:          24


  :: Hartree-Fock engine
  =========================

  Drives the calculation of the Hartree-Fock state.

  This is a RHF ground state calculation.
  The following tasks will be performed:

     1) Generate initial SAD density
     2) Calculation of reference state (SCF-DIIS algorithm)


  1) Generate initial SAD density


  2) Calculation of reference state (SCF-DIIS algorithm)

   - Self-consistent field DIIS Hartree-Fock solver
  ----------------------------------------------------

  A DIIS-accelerated Roothan-Hall self-consistent field solver. A least-square 
  DIIS fit is performed on the previous Fock matrices and associated gradients. 
  Following the Roothan-Hall update of the density, the DIIS-fitted Fock 
  matrix is used to get the next orbital coefficients.

  - Hartree-Fock solver settings:

     DIIS dimension:                         8
     Cumulative Fock threshold:       0.10E+01

     Energy threshold:              0.1000E-09
     Gradient threshold:            0.1000E-09

     Coulomb screening threshold:   0.1000E-15
     Exchange screening threshold:  0.1000E-13
     Fock precision:                0.1000E-31
     Integral cutoff:               0.1000E-15

  - Setting initial AO density to SAD

     Energy of initial guess:               -75.948349660972
     Number of electrons in guess:           10.000000000000

  Iteration       Energy (a.u.)      Max(grad.)    Delta E (a.u.)
  ---------------------------------------------------------------
     1           -76.030467272484     0.8769E-01     0.7603E+02
     2           -76.060213481309     0.5251E-01     0.2975E-01
     3           -76.069160522444     0.5737E-02     0.8947E-02
     4           -76.069340316566     0.1166E-02     0.1798E-03
     5           -76.069353362059     0.1493E-03     0.1305E-04
     6           -76.069353671978     0.2792E-04     0.3099E-06
     7           -76.069353682161     0.2082E-05     0.1018E-07
     8           -76.069353682237     0.5334E-06     0.7603E-10
     9           -76.069353682243     0.1301E-06     0.5798E-11
    10           -76.069353682243     0.2846E-07     0.3979E-12
    11           -76.069353682243     0.4582E-08     0.2842E-13
    12           -76.069353682243     0.8059E-09     0.1421E-13
    13           -76.069353682243     0.2235E-09     0.4263E-13
    14           -76.069353682243     0.4431E-10     0.4263E-13
  ---------------------------------------------------------------
  Convergence criterion met in 14 iterations!

  - Summary of RHF wavefunction energetics (a.u.):

     HOMO-LUMO gap:                  0.685069620043
     Nuclear repulsion energy:       9.307879526626
     Electronic energy:            -85.377233208869
     Total energy:                 -76.069353682243

  - Summary of QM/MM energetics:
                                         a.u.             eV     kcal/mol
     QM/MM SCF Contribution:        -0.043279063376
     QM/MM Electrostatic Energy:    -0.014396934283    -0.39176    -9.034

  - Molecular orbital energies

  -----------------------------------------------------------------------------------
   1 -20.517857250999   7   0.305796244634  13   1.493807725590  19   2.557171060143
   2  -1.312846342179   8   0.838280406663  14   1.503306854380  20   3.310193598248
   3  -0.681560005116   9   0.890868567264  15   1.722265162263  21   3.388579957343
   4  -0.537346775799  10   1.186422330125  16   1.898044852874  22   3.540346364426
   5  -0.466704915313  11   1.225295636280  17   1.967251234724  23   3.932037912783
   6   0.218364704730  12   1.277783669990  18   2.526637923097  24   4.175274854450
  -----------------------------------------------------------------------------------

  - Timings for the RHF ground state calculation

     Total wall time (sec):              0.34200
     Total cpu time (sec):               0.56322


  :: CCSD wavefunction
  =======================

     Bath orbital(s):         False
     Core-valence separation: False

   - Number of orbitals:

     Occupied orbitals:    5
     Virtual orbitals:     19
     Molecular orbitals:   24
     Atomic orbitals:      24

   - Number of ground state amplitudes:

     Single excitation amplitudes:  95
     Double excitation amplitudes:  4560


  :: Ground state coupled cluster engine
  =========================================

  Calculates the ground state CC wavefunction | CC > = exp(T) | R >

  This is a CCSD ground state calculation.
  The following tasks will be performed:

     1) Preparation of MO basis and integrals
     2) Calculation of the ground state (diis algorithm)


  1) Preparation of MO basis and integrals

  - Settings for integral handling:

     Cholesky vectors in memory: True
     ERI matrix in memory:       True


  2) Calculation of the ground state (diis algorithm)

   - DIIS coupled cluster ground state solver
  ----------------------------------------------

  A DIIS CC ground state amplitude equations solver. It uses an extrapolation 
  of previous quasi-Newton perturbation theory estimates of the next amplitudes. 
  See Helgaker et al., Molecular Electronic Structure Theory, Chapter 
  13.

  - DIIS CC ground state solver settings:

     Omega threshold:           0.10E-09
     Energy threshold:          0.10E-09

     DIIS dimension:                   8
     Max number of iterations:       100

     Storage: disk

  Iteration    Energy (a.u.)        |omega|       Delta E (a.u.)
  ---------------------------------------------------------------
    1           -76.271682357029     0.7444E-01     0.7627E+02
    2           -76.276783679953     0.2066E-01     0.5101E-02
    3           -76.280488827349     0.4734E-02     0.3705E-02
    4           -76.280892487091     0.1055E-02     0.4037E-03
    5           -76.280900964383     0.2103E-03     0.8477E-05
    6           -76.280909976397     0.6727E-04     0.9012E-05
    7           -76.280909135261     0.1733E-04     0.8411E-06
    8           -76.280908669112     0.4137E-05     0.4661E-06
    9           -76.280908579723     0.9655E-06     0.8939E-07
   10           -76.280908528566     0.2228E-06     0.5116E-07
   11           -76.280908543077     0.5014E-07     0.1451E-07
   12           -76.280908542156     0.9864E-08     0.9212E-09
   13           -76.280908542613     0.2662E-08     0.4575E-09
   14           -76.280908542479     0.7394E-09     0.1342E-09
   15           -76.280908542471     0.2272E-09     0.8299E-11
   16           -76.280908542471     0.4325E-10     0.1279E-12
  ---------------------------------------------------------------
  Convergence criterion met in 16 iterations!

  - Ground state summary:

     Final ground state energy (a.u.):   -76.280908542471

     Correlation energy (a.u.):           -0.211554860228

     Largest single amplitudes:
     -----------------------------------
        a       i         t(a,i)
     -----------------------------------
       13      3       -0.006759763618
        1      4        0.005836090586
        2      3        0.005618061048
       14      4        0.004413514045
        1      2       -0.004383675044
        5      2        0.003986243346
        7      3        0.003949456176
       10      5        0.003042991407
        8      4       -0.002870184466
        4      4       -0.002639343389
     ------------------------------------

     Largest double amplitudes:
     --------------------------------------------------
        a      i       b      j         t(ai,bj)
     --------------------------------------------------
        6      5       6      5       -0.051481946126
        5      4       5      4       -0.036603481806
        3      3       3      3       -0.035387214685
        5      4       6      5        0.029270694689
        4      3       4      3       -0.028611385117
        2      3       2      3       -0.025315431107
        3      4       3      4       -0.024709303602
        7      3       6      5       -0.022866450902
        7      3       7      3       -0.022320386277
        2      3       6      5        0.020380486012
     --------------------------------------------------

     T1 diagnostic (|T1|/sqrt(N_e)): 0.004884721507

  - Finished solving the CCSD ground state equations

     Total wall time (sec):              0.13700
     Total cpu time (sec):               0.34747

  - Timings for the CCSD ground state calculation

     Total wall time (sec):              0.14100
     Total cpu time (sec):               0.35322

  eT terminated successfully!
